<svg width="325" height="342" viewBox="0 0 325 342" fill="none" xmlns="http://www.w3.org/2000/svg">
<path d="M118 102H52" stroke="#FF7E00" stroke-width="3.24594" stroke-linecap="round"/>
<path d="M118 334H52" stroke="#FF7E00" stroke-width="3.24594" stroke-linecap="round"/>
<path d="M118 168H52" stroke="#FF7E00" stroke-width="3.24594" stroke-linecap="round"/>
<path d="M118 234H52" stroke="#FF7E00" stroke-width="3.24594" stroke-linecap="round"/>
<path d="M118 134H52" stroke="#FF7E00" stroke-width="3.24594" stroke-linecap="round"/>
<path d="M118 76H52" stroke="#FF7E00" stroke-width="3.24594" stroke-linecap="round"/>
<path d="M118 18H52" stroke="#FF7E00" stroke-width="3.24594" stroke-linecap="round"/>
<path d="M118 47H52" stroke="#FF7E00" stroke-width="3.24594" stroke-linecap="round"/>
<path d="M118 202H52" stroke="#FF7E00" stroke-width="3.24594" stroke-linecap="round"/>
<path d="M118 268H52" stroke="#FF7E00" stroke-width="3.24594" stroke-linecap="round"/>
<path d="M118 300H52" stroke="#FF7E00" stroke-width="3.24594" stroke-linecap="round"/>
<path d="M118 117L80 117" stroke="#FF7E00" stroke-width="3.24594" stroke-linecap="round"/>
<path d="M118 62L80 62" stroke="#FF7E00" stroke-width="3.24594" stroke-linecap="round"/>
<path d="M118 89L80 89" stroke="#FF7E00" stroke-width="3.24594" stroke-linecap="round"/>
<path d="M118 33L80 33" stroke="#FF7E00" stroke-width="3.24594" stroke-linecap="round"/>
<path d="M118 185L80 185" stroke="#FF7E00" stroke-width="3.24594" stroke-linecap="round"/>
<path d="M118 251L80 251" stroke="#FF7E00" stroke-width="3.24594" stroke-linecap="round"/>
<path d="M118 151L80 151" stroke="#FF7E00" stroke-width="3.24594" stroke-linecap="round"/>
<path d="M118 219L80 219" stroke="#FF7E00" stroke-width="3.24594" stroke-linecap="round"/>
<path d="M118 285L80 285" stroke="#FF7E00" stroke-width="3.24594" stroke-linecap="round"/>
<path d="M118 317L80 317" stroke="#FF7E00" stroke-width="3.24594" stroke-linecap="round"/>
<path d="M8.92635 333.19C8.92635 334.207 8.81544 335.089 8.59364 335.835C8.37724 336.576 8.0797 337.19 7.701 337.677C7.32231 338.164 6.87329 338.527 6.35394 338.765C5.83999 339.003 5.28818 339.122 4.6985 339.122C4.10341 339.122 3.5489 339.003 3.03496 338.765C2.52643 338.527 2.08281 338.164 1.70412 337.677C1.32543 337.19 1.02788 336.576 0.811486 335.835C0.59509 335.089 0.486892 334.207 0.486892 333.19C0.486892 332.173 0.59509 331.291 0.811486 330.544C1.02788 329.798 1.32543 329.181 1.70412 328.694C2.08281 328.202 2.52643 327.837 3.03496 327.599C3.5489 327.361 4.10341 327.242 4.6985 327.242C5.28818 327.242 5.83999 327.361 6.35394 327.599C6.87329 327.837 7.32231 328.202 7.701 328.694C8.0797 329.181 8.37724 329.798 8.59364 330.544C8.81544 331.291 8.92635 332.173 8.92635 333.19ZM7.4251 333.19C7.4251 332.303 7.34936 331.559 7.19788 330.958C7.05181 330.352 6.85165 329.865 6.59738 329.497C6.34853 329.13 6.0591 328.867 5.72909 328.71C5.39909 328.548 5.05556 328.467 4.6985 328.467C4.34145 328.467 3.99792 328.548 3.66792 328.71C3.33791 328.867 3.04848 329.13 2.79963 329.497C2.55077 329.865 2.3506 330.352 2.19913 330.958C2.05306 331.559 1.98003 332.303 1.98003 333.19C1.98003 334.077 2.05306 334.821 2.19913 335.421C2.3506 336.022 2.55077 336.506 2.79963 336.874C3.04848 337.242 3.33791 337.507 3.66792 337.669C3.99792 337.826 4.34145 337.904 4.6985 337.904C5.05556 337.904 5.39909 337.826 5.72909 337.669C6.0591 337.507 6.34853 337.242 6.59738 336.874C6.85165 336.506 7.05181 336.022 7.19788 335.421C7.34936 334.821 7.4251 334.077 7.4251 333.19ZM18.3409 333.19C18.3409 334.207 18.2299 335.089 18.0081 335.835C17.7917 336.576 17.4942 337.19 17.1155 337.677C16.7368 338.164 16.2878 338.527 15.7684 338.765C15.2545 339.003 14.7027 339.122 14.113 339.122C13.5179 339.122 12.9634 339.003 12.4495 338.765C11.9409 338.527 11.4973 338.164 11.1186 337.677C10.7399 337.19 10.4424 336.576 10.226 335.835C10.0096 335.089 9.9014 334.207 9.9014 333.19C9.9014 332.173 10.0096 331.291 10.226 330.544C10.4424 329.798 10.7399 329.181 11.1186 328.694C11.4973 328.202 11.9409 327.837 12.4495 327.599C12.9634 327.361 13.5179 327.242 14.113 327.242C14.7027 327.242 15.2545 327.361 15.7684 327.599C16.2878 327.837 16.7368 328.202 17.1155 328.694C17.4942 329.181 17.7917 329.798 18.0081 330.544C18.2299 331.291 18.3409 332.173 18.3409 333.19ZM16.8396 333.19C16.8396 332.303 16.7639 331.559 16.6124 330.958C16.4663 330.352 16.2662 329.865 16.0119 329.497C15.763 329.13 15.4736 328.867 15.1436 328.71C14.8136 328.548 14.4701 328.467 14.113 328.467C13.756 328.467 13.4124 328.548 13.0824 328.71C12.7524 328.867 12.463 329.13 12.2141 329.497C11.9653 329.865 11.7651 330.352 11.6136 330.958C11.4676 331.559 11.3945 332.303 11.3945 333.19C11.3945 334.077 11.4676 334.821 11.6136 335.421C11.7651 336.022 11.9653 336.506 12.2141 336.874C12.463 337.242 12.7524 337.507 13.0824 337.669C13.4124 337.826 13.756 337.904 14.113 337.904C14.4701 337.904 14.8136 337.826 15.1436 337.669C15.4736 337.507 15.763 337.242 16.0119 336.874C16.2662 336.506 16.4663 336.022 16.6124 335.421C16.7639 334.821 16.8396 334.077 16.8396 333.19ZM28.8405 330.179C28.8405 330.634 28.7701 331.042 28.6295 331.404C28.4888 331.762 28.2995 332.064 28.0614 332.313C27.8288 332.557 27.5556 332.743 27.2418 332.873C26.9335 333.003 26.6062 333.068 26.2599 333.068C25.8975 333.068 25.5594 333.003 25.2456 332.873C24.9318 332.743 24.6586 332.557 24.426 332.313C24.1988 332.064 24.0202 331.762 23.8904 331.404C23.7606 331.042 23.6956 330.634 23.6956 330.179C23.6956 329.714 23.7606 329.3 23.8904 328.938C24.0202 328.575 24.1988 328.269 24.426 328.021C24.6586 327.772 24.9318 327.582 25.2456 327.453C25.5594 327.323 25.8975 327.258 26.2599 327.258C26.6278 327.258 26.9686 327.323 27.2824 327.453C27.5962 327.582 27.8694 327.772 28.102 328.021C28.3346 328.269 28.5159 328.575 28.6457 328.938C28.7755 329.3 28.8405 329.714 28.8405 330.179ZM27.7206 330.179C27.7206 329.822 27.6827 329.519 27.607 329.27C27.5313 329.021 27.4258 328.819 27.2905 328.662C27.1607 328.499 27.0065 328.383 26.828 328.313C26.6495 328.242 26.4601 328.207 26.2599 328.207C26.0598 328.207 25.8731 328.242 25.7 328.313C25.5269 328.383 25.3754 328.499 25.2456 328.662C25.1157 328.819 25.013 329.021 24.9372 329.27C24.8615 329.519 24.8236 329.822 24.8236 330.179C24.8236 330.531 24.8615 330.831 24.9372 331.08C25.013 331.323 25.1157 331.524 25.2456 331.68C25.3754 331.832 25.5269 331.943 25.7 332.013C25.8731 332.078 26.0598 332.11 26.2599 332.11C26.4601 332.11 26.6495 332.078 26.828 332.013C27.0065 331.943 27.1607 331.832 27.2905 331.68C27.4258 331.524 27.5313 331.323 27.607 331.08C27.6827 330.831 27.7206 330.531 27.7206 330.179ZM32.9547 327.615C33.0088 327.55 33.071 327.493 33.1413 327.444C33.2171 327.396 33.3172 327.371 33.4416 327.371H34.4884L25.984 338.765C25.9353 338.835 25.8731 338.892 25.7974 338.935C25.7217 338.978 25.6297 339 25.5215 339H24.4584L32.9547 327.615ZM35.2756 336.257C35.2756 336.712 35.2052 337.117 35.0646 337.474C34.9239 337.831 34.7346 338.134 34.4965 338.383C34.2639 338.627 33.9907 338.813 33.6769 338.943C33.3686 339.073 33.0413 339.138 32.695 339.138C32.3272 339.138 31.9863 339.073 31.6726 338.943C31.3642 338.813 31.0937 338.627 30.8611 338.383C30.6339 338.134 30.4553 337.831 30.3255 337.474C30.1957 337.117 30.1307 336.712 30.1307 336.257C30.1307 335.792 30.1957 335.378 30.3255 335.016C30.4553 334.648 30.6339 334.339 30.8611 334.091C31.0937 333.842 31.3642 333.652 31.6726 333.522C31.9863 333.393 32.3272 333.328 32.695 333.328C33.0575 333.328 33.3956 333.393 33.7094 333.522C34.0286 333.652 34.3018 333.842 34.529 334.091C34.7616 334.339 34.9428 334.648 35.0727 335.016C35.2079 335.378 35.2756 335.792 35.2756 336.257ZM34.1557 336.257C34.1557 335.9 34.1178 335.597 34.0421 335.348C33.9664 335.094 33.8609 334.888 33.7256 334.732C33.5958 334.575 33.4416 334.461 33.2631 334.391C33.0845 334.32 32.8952 334.285 32.695 334.285C32.4949 334.285 32.3055 334.32 32.127 334.391C31.9539 334.461 31.8024 334.575 31.6726 334.732C31.5427 334.888 31.4399 335.094 31.3642 335.348C31.2939 335.597 31.2587 335.9 31.2587 336.257C31.2587 336.609 31.2939 336.906 31.3642 337.15C31.4399 337.393 31.5427 337.593 31.6726 337.75C31.8024 337.902 31.9539 338.013 32.127 338.083C32.3055 338.148 32.4949 338.18 32.695 338.18C32.8952 338.18 33.0845 338.148 33.2631 338.083C33.4416 338.013 33.5958 337.902 33.7256 337.75C33.8609 337.593 33.9664 337.393 34.0421 337.15C34.1178 336.906 34.1557 336.609 34.1557 336.257Z" fill="black"/>
<path d="M8.26093 306.896V308H2.02872V306.896H4.51998V298.968C4.51998 298.73 4.52809 298.489 4.54432 298.246L2.47503 300.023C2.4047 300.083 2.33438 300.12 2.26405 300.137C2.19372 300.148 2.1288 300.148 2.06929 300.137C2.00978 300.126 1.95298 300.104 1.89888 300.072C1.85019 300.039 1.81232 300.004 1.78527 299.966L1.33084 299.341L4.79588 296.347H5.97254V306.896H8.26093ZM18.3409 302.19C18.3409 303.207 18.2299 304.089 18.0081 304.835C17.7917 305.576 17.4942 306.19 17.1155 306.677C16.7368 307.164 16.2878 307.527 15.7684 307.765C15.2545 308.003 14.7027 308.122 14.113 308.122C13.5179 308.122 12.9634 308.003 12.4495 307.765C11.9409 307.527 11.4973 307.164 11.1186 306.677C10.7399 306.19 10.4424 305.576 10.226 304.835C10.0096 304.089 9.9014 303.207 9.9014 302.19C9.9014 301.173 10.0096 300.291 10.226 299.544C10.4424 298.798 10.7399 298.181 11.1186 297.694C11.4973 297.202 11.9409 296.837 12.4495 296.599C12.9634 296.361 13.5179 296.242 14.113 296.242C14.7027 296.242 15.2545 296.361 15.7684 296.599C16.2878 296.837 16.7368 297.202 17.1155 297.694C17.4942 298.181 17.7917 298.798 18.0081 299.544C18.2299 300.291 18.3409 301.173 18.3409 302.19ZM16.8396 302.19C16.8396 301.303 16.7639 300.559 16.6124 299.958C16.4663 299.352 16.2662 298.865 16.0119 298.497C15.763 298.13 15.4736 297.867 15.1436 297.71C14.8136 297.548 14.4701 297.467 14.113 297.467C13.756 297.467 13.4124 297.548 13.0824 297.71C12.7524 297.867 12.463 298.13 12.2141 298.497C11.9653 298.865 11.7651 299.352 11.6136 299.958C11.4676 300.559 11.3945 301.303 11.3945 302.19C11.3945 303.077 11.4676 303.821 11.6136 304.421C11.7651 305.022 11.9653 305.506 12.2141 305.874C12.463 306.242 12.7524 306.507 13.0824 306.669C13.4124 306.826 13.756 306.904 14.113 306.904C14.4701 306.904 14.8136 306.826 15.1436 306.669C15.4736 306.507 15.763 306.242 16.0119 305.874C16.2662 305.506 16.4663 305.022 16.6124 304.421C16.7639 303.821 16.8396 303.077 16.8396 302.19ZM24.6879 299.179C24.6879 299.634 24.6176 300.042 24.477 300.404C24.3363 300.762 24.147 301.064 23.9089 301.313C23.6763 301.557 23.4031 301.743 23.0893 301.873C22.7809 302.003 22.4536 302.068 22.1074 302.068C21.745 302.068 21.4068 302.003 21.0931 301.873C20.7793 301.743 20.5061 301.557 20.2735 301.313C20.0462 301.064 19.8677 300.762 19.7379 300.404C19.608 300.042 19.5431 299.634 19.5431 299.179C19.5431 298.714 19.608 298.3 19.7379 297.938C19.8677 297.575 20.0462 297.269 20.2735 297.021C20.5061 296.772 20.7793 296.582 21.0931 296.453C21.4068 296.323 21.745 296.258 22.1074 296.258C22.4753 296.258 22.8161 296.323 23.1299 296.453C23.4437 296.582 23.7169 296.772 23.9495 297.021C24.1821 297.269 24.3633 297.575 24.4932 297.938C24.623 298.3 24.6879 298.714 24.6879 299.179ZM23.5681 299.179C23.5681 298.822 23.5302 298.519 23.4545 298.27C23.3787 298.021 23.2733 297.819 23.138 297.662C23.0082 297.499 22.854 297.383 22.6755 297.313C22.4969 297.242 22.3076 297.207 22.1074 297.207C21.9072 297.207 21.7206 297.242 21.5475 297.313C21.3744 297.383 21.2229 297.499 21.0931 297.662C20.9632 297.819 20.8604 298.021 20.7847 298.27C20.709 298.519 20.6711 298.822 20.6711 299.179C20.6711 299.531 20.709 299.831 20.7847 300.08C20.8604 300.323 20.9632 300.524 21.0931 300.68C21.2229 300.832 21.3744 300.943 21.5475 301.013C21.7206 301.078 21.9072 301.11 22.1074 301.11C22.3076 301.11 22.4969 301.078 22.6755 301.013C22.854 300.943 23.0082 300.832 23.138 300.68C23.2733 300.524 23.3787 300.323 23.4545 300.08C23.5302 299.831 23.5681 299.531 23.5681 299.179ZM28.8022 296.615C28.8563 296.55 28.9185 296.493 28.9888 296.444C29.0646 296.396 29.1646 296.371 29.2891 296.371H30.3359L21.8315 307.765C21.7828 307.835 21.7206 307.892 21.6449 307.935C21.5691 307.978 21.4772 308 21.369 308H20.3059L28.8022 296.615ZM31.123 305.257C31.123 305.712 31.0527 306.117 30.912 306.474C30.7714 306.831 30.582 307.134 30.344 307.383C30.1114 307.627 29.8382 307.813 29.5244 307.943C29.216 308.073 28.8887 308.138 28.5425 308.138C28.1746 308.138 27.8338 308.073 27.52 307.943C27.2117 307.813 26.9412 307.627 26.7085 307.383C26.4813 307.134 26.3028 306.831 26.173 306.474C26.0431 306.117 25.9782 305.712 25.9782 305.257C25.9782 304.792 26.0431 304.378 26.173 304.016C26.3028 303.648 26.4813 303.339 26.7085 303.091C26.9412 302.842 27.2117 302.652 27.52 302.522C27.8338 302.393 28.1746 302.328 28.5425 302.328C28.905 302.328 29.2431 302.393 29.5569 302.522C29.876 302.652 30.1492 302.842 30.3765 303.091C30.6091 303.339 30.7903 303.648 30.9202 304.016C31.0554 304.378 31.123 304.792 31.123 305.257ZM30.0032 305.257C30.0032 304.9 29.9653 304.597 29.8896 304.348C29.8138 304.094 29.7083 303.888 29.5731 303.732C29.4433 303.575 29.2891 303.461 29.1105 303.391C28.932 303.32 28.7427 303.285 28.5425 303.285C28.3423 303.285 28.153 303.32 27.9745 303.391C27.8013 303.461 27.6499 303.575 27.52 303.732C27.3902 303.888 27.2874 304.094 27.2117 304.348C27.1413 304.597 27.1062 304.9 27.1062 305.257C27.1062 305.609 27.1413 305.906 27.2117 306.15C27.2874 306.393 27.3902 306.593 27.52 306.75C27.6499 306.902 27.8013 307.013 27.9745 307.083C28.153 307.148 28.3423 307.18 28.5425 307.18C28.7427 307.18 28.932 307.148 29.1105 307.083C29.2891 307.013 29.4433 306.902 29.5731 306.75C29.7083 306.593 29.8138 306.393 29.8896 306.15C29.9653 305.906 30.0032 305.609 30.0032 305.257Z" fill="black"/>
<path d="M8.00937 274.629C8.16625 274.629 8.29068 274.675 8.38265 274.767C8.47462 274.859 8.5206 274.978 8.5206 275.124V276H0.762797V275.505C0.762797 275.402 0.784437 275.297 0.827716 275.189C0.870995 275.08 0.938619 274.98 1.03059 274.888L4.75531 271.147C5.06367 270.834 5.34499 270.533 5.59925 270.247C5.85352 269.954 6.06992 269.662 6.24844 269.37C6.42697 269.078 6.56492 268.783 6.6623 268.486C6.75968 268.183 6.80837 267.861 6.80837 267.52C6.80837 267.179 6.75427 266.882 6.64607 266.627C6.53787 266.368 6.3891 266.154 6.19975 265.986C6.01582 265.819 5.79672 265.694 5.54245 265.613C5.28818 265.526 5.01498 265.483 4.72285 265.483C4.4253 265.483 4.1521 265.526 3.90325 265.613C3.65439 265.7 3.43259 265.821 3.23783 265.978C3.04848 266.13 2.88889 266.311 2.75905 266.522C2.62921 266.733 2.53725 266.965 2.48315 267.22C2.41823 267.409 2.32896 267.536 2.21536 267.601C2.10716 267.661 1.95298 267.677 1.75281 267.65L0.998128 267.52C1.07387 266.99 1.21993 266.522 1.43633 266.116C1.65814 265.705 1.93404 265.361 2.26405 265.086C2.59946 264.81 2.98086 264.601 3.40824 264.461C3.83562 264.315 4.29817 264.242 4.79588 264.242C5.28818 264.242 5.74803 264.315 6.17541 264.461C6.60279 264.607 6.97337 264.82 7.28715 265.102C7.60092 265.378 7.84707 265.716 8.0256 266.116C8.20412 266.516 8.29339 266.971 8.29339 267.479C8.29339 267.912 8.22847 268.315 8.09863 268.689C7.96879 269.056 7.79297 269.408 7.57117 269.743C7.34936 270.079 7.09239 270.406 6.80025 270.725C6.51353 271.045 6.20787 271.366 5.88327 271.691L2.81586 274.823C3.03225 274.764 3.25135 274.718 3.47316 274.685C3.69497 274.648 3.90866 274.629 4.11423 274.629H8.00937ZM18.3409 270.19C18.3409 271.207 18.2299 272.089 18.0081 272.835C17.7917 273.576 17.4942 274.19 17.1155 274.677C16.7368 275.164 16.2878 275.527 15.7684 275.765C15.2545 276.003 14.7027 276.122 14.113 276.122C13.5179 276.122 12.9634 276.003 12.4495 275.765C11.9409 275.527 11.4973 275.164 11.1186 274.677C10.7399 274.19 10.4424 273.576 10.226 272.835C10.0096 272.089 9.9014 271.207 9.9014 270.19C9.9014 269.173 10.0096 268.291 10.226 267.544C10.4424 266.798 10.7399 266.181 11.1186 265.694C11.4973 265.202 11.9409 264.837 12.4495 264.599C12.9634 264.361 13.5179 264.242 14.113 264.242C14.7027 264.242 15.2545 264.361 15.7684 264.599C16.2878 264.837 16.7368 265.202 17.1155 265.694C17.4942 266.181 17.7917 266.798 18.0081 267.544C18.2299 268.291 18.3409 269.173 18.3409 270.19ZM16.8396 270.19C16.8396 269.303 16.7639 268.559 16.6124 267.958C16.4663 267.352 16.2662 266.865 16.0119 266.497C15.763 266.13 15.4736 265.867 15.1436 265.71C14.8136 265.548 14.4701 265.467 14.113 265.467C13.756 265.467 13.4124 265.548 13.0824 265.71C12.7524 265.867 12.463 266.13 12.2141 266.497C11.9653 266.865 11.7651 267.352 11.6136 267.958C11.4676 268.559 11.3945 269.303 11.3945 270.19C11.3945 271.077 11.4676 271.821 11.6136 272.421C11.7651 273.022 11.9653 273.506 12.2141 273.874C12.463 274.242 12.7524 274.507 13.0824 274.669C13.4124 274.826 13.756 274.904 14.113 274.904C14.4701 274.904 14.8136 274.826 15.1436 274.669C15.4736 274.507 15.763 274.242 16.0119 273.874C16.2662 273.506 16.4663 273.022 16.6124 272.421C16.7639 271.821 16.8396 271.077 16.8396 270.19ZM24.6879 267.179C24.6879 267.634 24.6176 268.042 24.477 268.404C24.3363 268.762 24.147 269.064 23.9089 269.313C23.6763 269.557 23.4031 269.743 23.0893 269.873C22.7809 270.003 22.4536 270.068 22.1074 270.068C21.745 270.068 21.4068 270.003 21.0931 269.873C20.7793 269.743 20.5061 269.557 20.2735 269.313C20.0462 269.064 19.8677 268.762 19.7379 268.404C19.608 268.042 19.5431 267.634 19.5431 267.179C19.5431 266.714 19.608 266.3 19.7379 265.938C19.8677 265.575 20.0462 265.269 20.2735 265.021C20.5061 264.772 20.7793 264.582 21.0931 264.453C21.4068 264.323 21.745 264.258 22.1074 264.258C22.4753 264.258 22.8161 264.323 23.1299 264.453C23.4437 264.582 23.7169 264.772 23.9495 265.021C24.1821 265.269 24.3633 265.575 24.4932 265.938C24.623 266.3 24.6879 266.714 24.6879 267.179ZM23.5681 267.179C23.5681 266.822 23.5302 266.519 23.4545 266.27C23.3787 266.021 23.2733 265.819 23.138 265.662C23.0082 265.499 22.854 265.383 22.6755 265.313C22.4969 265.242 22.3076 265.207 22.1074 265.207C21.9072 265.207 21.7206 265.242 21.5475 265.313C21.3744 265.383 21.2229 265.499 21.0931 265.662C20.9632 265.819 20.8604 266.021 20.7847 266.27C20.709 266.519 20.6711 266.822 20.6711 267.179C20.6711 267.531 20.709 267.831 20.7847 268.08C20.8604 268.323 20.9632 268.524 21.0931 268.68C21.2229 268.832 21.3744 268.943 21.5475 269.013C21.7206 269.078 21.9072 269.11 22.1074 269.11C22.3076 269.11 22.4969 269.078 22.6755 269.013C22.854 268.943 23.0082 268.832 23.138 268.68C23.2733 268.524 23.3787 268.323 23.4545 268.08C23.5302 267.831 23.5681 267.531 23.5681 267.179ZM28.8022 264.615C28.8563 264.55 28.9185 264.493 28.9888 264.444C29.0646 264.396 29.1646 264.371 29.2891 264.371H30.3359L21.8315 275.765C21.7828 275.835 21.7206 275.892 21.6449 275.935C21.5691 275.978 21.4772 276 21.369 276H20.3059L28.8022 264.615ZM31.123 273.257C31.123 273.712 31.0527 274.117 30.912 274.474C30.7714 274.831 30.582 275.134 30.344 275.383C30.1114 275.627 29.8382 275.813 29.5244 275.943C29.216 276.073 28.8887 276.138 28.5425 276.138C28.1746 276.138 27.8338 276.073 27.52 275.943C27.2117 275.813 26.9412 275.627 26.7085 275.383C26.4813 275.134 26.3028 274.831 26.173 274.474C26.0431 274.117 25.9782 273.712 25.9782 273.257C25.9782 272.792 26.0431 272.378 26.173 272.016C26.3028 271.648 26.4813 271.339 26.7085 271.091C26.9412 270.842 27.2117 270.652 27.52 270.522C27.8338 270.393 28.1746 270.328 28.5425 270.328C28.905 270.328 29.2431 270.393 29.5569 270.522C29.876 270.652 30.1492 270.842 30.3765 271.091C30.6091 271.339 30.7903 271.648 30.9202 272.016C31.0554 272.378 31.123 272.792 31.123 273.257ZM30.0032 273.257C30.0032 272.9 29.9653 272.597 29.8896 272.348C29.8138 272.094 29.7083 271.888 29.5731 271.732C29.4433 271.575 29.2891 271.461 29.1105 271.391C28.932 271.32 28.7427 271.285 28.5425 271.285C28.3423 271.285 28.153 271.32 27.9745 271.391C27.8013 271.461 27.6499 271.575 27.52 271.732C27.3902 271.888 27.2874 272.094 27.2117 272.348C27.1413 272.597 27.1062 272.9 27.1062 273.257C27.1062 273.609 27.1413 273.906 27.2117 274.15C27.2874 274.393 27.3902 274.593 27.52 274.75C27.6499 274.902 27.8013 275.013 27.9745 275.083C28.153 275.148 28.3423 275.18 28.5425 275.18C28.7427 275.18 28.932 275.148 29.1105 275.083C29.2891 275.013 29.4433 274.902 29.5731 274.75C29.7083 274.593 29.8138 274.393 29.8896 274.15C29.9653 273.906 30.0032 273.609 30.0032 273.257Z" fill="black"/>
<path d="M1.05493 233.52C1.13067 232.99 1.27674 232.522 1.49313 232.116C1.70953 231.705 1.98273 231.361 2.31274 231.086C2.64815 230.81 3.02955 230.601 3.45693 230.461C3.88972 230.315 4.35498 230.242 4.85269 230.242C5.34499 230.242 5.79942 230.312 6.21598 230.453C6.63255 230.593 6.9896 230.793 7.28715 231.053C7.5901 231.313 7.82543 231.627 7.99314 231.994C8.16085 232.362 8.2447 232.771 8.2447 233.22C8.2447 233.588 8.19601 233.918 8.09863 234.21C8.00666 234.496 7.87142 234.748 7.69289 234.964C7.51977 235.181 7.30878 235.365 7.05993 235.516C6.81107 235.668 6.53246 235.792 6.2241 235.89C6.98149 236.084 7.54953 236.42 7.92822 236.896C8.31232 237.366 8.50437 237.956 8.50437 238.665C8.50437 239.2 8.40159 239.682 8.19601 240.109C7.99584 240.537 7.71994 240.902 7.36829 241.205C7.01665 241.502 6.6055 241.732 6.13483 241.895C5.66958 242.051 5.16917 242.13 4.63359 242.13C4.01686 242.13 3.48939 242.054 3.05119 241.903C2.61299 241.746 2.24241 241.532 1.93945 241.262C1.6365 240.991 1.38764 240.672 1.19288 240.304C0.998128 239.931 0.833126 239.528 0.697878 239.095L1.32272 238.835C1.48502 238.765 1.64191 238.746 1.79338 238.778C1.95027 238.811 2.06388 238.9 2.13421 239.046C2.20454 239.198 2.2911 239.379 2.39388 239.59C2.50208 239.801 2.64815 240.004 2.83209 240.199C3.01602 240.393 3.24865 240.558 3.52996 240.694C3.81669 240.829 4.17915 240.896 4.61736 240.896C5.0231 240.896 5.37745 240.831 5.6804 240.702C5.98877 240.566 6.24303 240.393 6.4432 240.182C6.64878 239.971 6.80296 239.736 6.90575 239.476C7.00853 239.217 7.05993 238.96 7.05993 238.705C7.05993 238.392 7.01935 238.105 6.93821 237.845C6.85706 237.586 6.70558 237.361 6.48377 237.172C6.26197 236.982 5.95631 236.834 5.56679 236.725C5.18269 236.617 4.68768 236.563 4.08178 236.563V235.516C4.57949 235.511 5.00146 235.457 5.34769 235.354C5.69934 235.251 5.98336 235.11 6.19975 234.932C6.42156 234.753 6.58115 234.54 6.67853 234.291C6.78132 234.042 6.83271 233.766 6.83271 233.463C6.83271 233.128 6.77861 232.836 6.67042 232.587C6.56763 232.338 6.42426 232.132 6.24033 231.97C6.05639 231.808 5.83729 231.686 5.58302 231.605C5.33417 231.524 5.06367 231.483 4.77154 231.483C4.4794 231.483 4.2062 231.526 3.95194 231.613C3.70308 231.7 3.48128 231.821 3.28652 231.978C3.09717 232.13 2.93758 232.311 2.80774 232.522C2.6779 232.733 2.58594 232.965 2.53184 233.22C2.46151 233.409 2.37224 233.536 2.26405 233.601C2.16126 233.661 2.00978 233.677 1.80961 233.65L1.05493 233.52ZM18.3409 236.19C18.3409 237.207 18.2299 238.089 18.0081 238.835C17.7917 239.576 17.4942 240.19 17.1155 240.677C16.7368 241.164 16.2878 241.527 15.7684 241.765C15.2545 242.003 14.7027 242.122 14.113 242.122C13.5179 242.122 12.9634 242.003 12.4495 241.765C11.9409 241.527 11.4973 241.164 11.1186 240.677C10.7399 240.19 10.4424 239.576 10.226 238.835C10.0096 238.089 9.9014 237.207 9.9014 236.19C9.9014 235.173 10.0096 234.291 10.226 233.544C10.4424 232.798 10.7399 232.181 11.1186 231.694C11.4973 231.202 11.9409 230.837 12.4495 230.599C12.9634 230.361 13.5179 230.242 14.113 230.242C14.7027 230.242 15.2545 230.361 15.7684 230.599C16.2878 230.837 16.7368 231.202 17.1155 231.694C17.4942 232.181 17.7917 232.798 18.0081 233.544C18.2299 234.291 18.3409 235.173 18.3409 236.19ZM16.8396 236.19C16.8396 235.303 16.7639 234.559 16.6124 233.958C16.4663 233.352 16.2662 232.865 16.0119 232.497C15.763 232.13 15.4736 231.867 15.1436 231.71C14.8136 231.548 14.4701 231.467 14.113 231.467C13.756 231.467 13.4124 231.548 13.0824 231.71C12.7524 231.867 12.463 232.13 12.2141 232.497C11.9653 232.865 11.7651 233.352 11.6136 233.958C11.4676 234.559 11.3945 235.303 11.3945 236.19C11.3945 237.077 11.4676 237.821 11.6136 238.421C11.7651 239.022 11.9653 239.506 12.2141 239.874C12.463 240.242 12.7524 240.507 13.0824 240.669C13.4124 240.826 13.756 240.904 14.113 240.904C14.4701 240.904 14.8136 240.826 15.1436 240.669C15.4736 240.507 15.763 240.242 16.0119 239.874C16.2662 239.506 16.4663 239.022 16.6124 238.421C16.7639 237.821 16.8396 237.077 16.8396 236.19ZM24.6879 233.179C24.6879 233.634 24.6176 234.042 24.477 234.404C24.3363 234.762 24.147 235.064 23.9089 235.313C23.6763 235.557 23.4031 235.743 23.0893 235.873C22.7809 236.003 22.4536 236.068 22.1074 236.068C21.745 236.068 21.4068 236.003 21.0931 235.873C20.7793 235.743 20.5061 235.557 20.2735 235.313C20.0462 235.064 19.8677 234.762 19.7379 234.404C19.608 234.042 19.5431 233.634 19.5431 233.179C19.5431 232.714 19.608 232.3 19.7379 231.938C19.8677 231.575 20.0462 231.269 20.2735 231.021C20.5061 230.772 20.7793 230.582 21.0931 230.453C21.4068 230.323 21.745 230.258 22.1074 230.258C22.4753 230.258 22.8161 230.323 23.1299 230.453C23.4437 230.582 23.7169 230.772 23.9495 231.021C24.1821 231.269 24.3633 231.575 24.4932 231.938C24.623 232.3 24.6879 232.714 24.6879 233.179ZM23.5681 233.179C23.5681 232.822 23.5302 232.519 23.4545 232.27C23.3787 232.021 23.2733 231.819 23.138 231.662C23.0082 231.499 22.854 231.383 22.6755 231.313C22.4969 231.242 22.3076 231.207 22.1074 231.207C21.9072 231.207 21.7206 231.242 21.5475 231.313C21.3744 231.383 21.2229 231.499 21.0931 231.662C20.9632 231.819 20.8604 232.021 20.7847 232.27C20.709 232.519 20.6711 232.822 20.6711 233.179C20.6711 233.531 20.709 233.831 20.7847 234.08C20.8604 234.323 20.9632 234.524 21.0931 234.68C21.2229 234.832 21.3744 234.943 21.5475 235.013C21.7206 235.078 21.9072 235.11 22.1074 235.11C22.3076 235.11 22.4969 235.078 22.6755 235.013C22.854 234.943 23.0082 234.832 23.138 234.68C23.2733 234.524 23.3787 234.323 23.4545 234.08C23.5302 233.831 23.5681 233.531 23.5681 233.179ZM28.8022 230.615C28.8563 230.55 28.9185 230.493 28.9888 230.444C29.0646 230.396 29.1646 230.371 29.2891 230.371H30.3359L21.8315 241.765C21.7828 241.835 21.7206 241.892 21.6449 241.935C21.5691 241.978 21.4772 242 21.369 242H20.3059L28.8022 230.615ZM31.123 239.257C31.123 239.712 31.0527 240.117 30.912 240.474C30.7714 240.831 30.582 241.134 30.344 241.383C30.1114 241.627 29.8382 241.813 29.5244 241.943C29.216 242.073 28.8887 242.138 28.5425 242.138C28.1746 242.138 27.8338 242.073 27.52 241.943C27.2117 241.813 26.9412 241.627 26.7085 241.383C26.4813 241.134 26.3028 240.831 26.173 240.474C26.0431 240.117 25.9782 239.712 25.9782 239.257C25.9782 238.792 26.0431 238.378 26.173 238.016C26.3028 237.648 26.4813 237.339 26.7085 237.091C26.9412 236.842 27.2117 236.652 27.52 236.522C27.8338 236.393 28.1746 236.328 28.5425 236.328C28.905 236.328 29.2431 236.393 29.5569 236.522C29.876 236.652 30.1492 236.842 30.3765 237.091C30.6091 237.339 30.7903 237.648 30.9202 238.016C31.0554 238.378 31.123 238.792 31.123 239.257ZM30.0032 239.257C30.0032 238.9 29.9653 238.597 29.8896 238.348C29.8138 238.094 29.7083 237.888 29.5731 237.732C29.4433 237.575 29.2891 237.461 29.1105 237.391C28.932 237.32 28.7427 237.285 28.5425 237.285C28.3423 237.285 28.153 237.32 27.9745 237.391C27.8013 237.461 27.6499 237.575 27.52 237.732C27.3902 237.888 27.2874 238.094 27.2117 238.348C27.1413 238.597 27.1062 238.9 27.1062 239.257C27.1062 239.609 27.1413 239.906 27.2117 240.15C27.2874 240.393 27.3902 240.593 27.52 240.75C27.6499 240.902 27.8013 241.013 27.9745 241.083C28.153 241.148 28.3423 241.18 28.5425 241.18C28.7427 241.18 28.932 241.148 29.1105 241.083C29.2891 241.013 29.4433 240.902 29.5731 240.75C29.7083 240.593 29.8138 240.393 29.8896 240.15C29.9653 239.906 30.0032 239.609 30.0032 239.257Z" fill="black"/>
<path d="M5.92385 204.805V200.009C5.92385 199.868 5.92926 199.714 5.94008 199.546C5.9509 199.378 5.96713 199.208 5.98877 199.035L1.75281 204.805H5.92385ZM8.95069 204.805V205.632C8.95069 205.719 8.92364 205.792 8.86954 205.851C8.82085 205.911 8.74241 205.941 8.63421 205.941H7.18977V209H5.92385V205.941H0.762797C0.654599 205.941 0.559925 205.911 0.478777 205.851C0.403038 205.787 0.354349 205.708 0.332709 205.616L0.186642 204.878L5.8427 197.371H7.18977V204.805H8.95069ZM18.3409 203.19C18.3409 204.207 18.2299 205.089 18.0081 205.835C17.7917 206.576 17.4942 207.19 17.1155 207.677C16.7368 208.164 16.2878 208.527 15.7684 208.765C15.2545 209.003 14.7027 209.122 14.113 209.122C13.5179 209.122 12.9634 209.003 12.4495 208.765C11.9409 208.527 11.4973 208.164 11.1186 207.677C10.7399 207.19 10.4424 206.576 10.226 205.835C10.0096 205.089 9.9014 204.207 9.9014 203.19C9.9014 202.173 10.0096 201.291 10.226 200.544C10.4424 199.798 10.7399 199.181 11.1186 198.694C11.4973 198.202 11.9409 197.837 12.4495 197.599C12.9634 197.361 13.5179 197.242 14.113 197.242C14.7027 197.242 15.2545 197.361 15.7684 197.599C16.2878 197.837 16.7368 198.202 17.1155 198.694C17.4942 199.181 17.7917 199.798 18.0081 200.544C18.2299 201.291 18.3409 202.173 18.3409 203.19ZM16.8396 203.19C16.8396 202.303 16.7639 201.559 16.6124 200.958C16.4663 200.352 16.2662 199.865 16.0119 199.497C15.763 199.13 15.4736 198.867 15.1436 198.71C14.8136 198.548 14.4701 198.467 14.113 198.467C13.756 198.467 13.4124 198.548 13.0824 198.71C12.7524 198.867 12.463 199.13 12.2141 199.497C11.9653 199.865 11.7651 200.352 11.6136 200.958C11.4676 201.559 11.3945 202.303 11.3945 203.19C11.3945 204.077 11.4676 204.821 11.6136 205.421C11.7651 206.022 11.9653 206.506 12.2141 206.874C12.463 207.242 12.7524 207.507 13.0824 207.669C13.4124 207.826 13.756 207.904 14.113 207.904C14.4701 207.904 14.8136 207.826 15.1436 207.669C15.4736 207.507 15.763 207.242 16.0119 206.874C16.2662 206.506 16.4663 206.022 16.6124 205.421C16.7639 204.821 16.8396 204.077 16.8396 203.19ZM24.6879 200.179C24.6879 200.634 24.6176 201.042 24.477 201.404C24.3363 201.762 24.147 202.064 23.9089 202.313C23.6763 202.557 23.4031 202.743 23.0893 202.873C22.7809 203.003 22.4536 203.068 22.1074 203.068C21.745 203.068 21.4068 203.003 21.0931 202.873C20.7793 202.743 20.5061 202.557 20.2735 202.313C20.0462 202.064 19.8677 201.762 19.7379 201.404C19.608 201.042 19.5431 200.634 19.5431 200.179C19.5431 199.714 19.608 199.3 19.7379 198.938C19.8677 198.575 20.0462 198.269 20.2735 198.021C20.5061 197.772 20.7793 197.582 21.0931 197.453C21.4068 197.323 21.745 197.258 22.1074 197.258C22.4753 197.258 22.8161 197.323 23.1299 197.453C23.4437 197.582 23.7169 197.772 23.9495 198.021C24.1821 198.269 24.3633 198.575 24.4932 198.938C24.623 199.3 24.6879 199.714 24.6879 200.179ZM23.5681 200.179C23.5681 199.822 23.5302 199.519 23.4545 199.27C23.3787 199.021 23.2733 198.819 23.138 198.662C23.0082 198.499 22.854 198.383 22.6755 198.313C22.4969 198.242 22.3076 198.207 22.1074 198.207C21.9072 198.207 21.7206 198.242 21.5475 198.313C21.3744 198.383 21.2229 198.499 21.0931 198.662C20.9632 198.819 20.8604 199.021 20.7847 199.27C20.709 199.519 20.6711 199.822 20.6711 200.179C20.6711 200.531 20.709 200.831 20.7847 201.08C20.8604 201.323 20.9632 201.524 21.0931 201.68C21.2229 201.832 21.3744 201.943 21.5475 202.013C21.7206 202.078 21.9072 202.11 22.1074 202.11C22.3076 202.11 22.4969 202.078 22.6755 202.013C22.854 201.943 23.0082 201.832 23.138 201.68C23.2733 201.524 23.3787 201.323 23.4545 201.08C23.5302 200.831 23.5681 200.531 23.5681 200.179ZM28.8022 197.615C28.8563 197.55 28.9185 197.493 28.9888 197.444C29.0646 197.396 29.1646 197.371 29.2891 197.371H30.3359L21.8315 208.765C21.7828 208.835 21.7206 208.892 21.6449 208.935C21.5691 208.978 21.4772 209 21.369 209H20.3059L28.8022 197.615ZM31.123 206.257C31.123 206.712 31.0527 207.117 30.912 207.474C30.7714 207.831 30.582 208.134 30.344 208.383C30.1114 208.627 29.8382 208.813 29.5244 208.943C29.216 209.073 28.8887 209.138 28.5425 209.138C28.1746 209.138 27.8338 209.073 27.52 208.943C27.2117 208.813 26.9412 208.627 26.7085 208.383C26.4813 208.134 26.3028 207.831 26.173 207.474C26.0431 207.117 25.9782 206.712 25.9782 206.257C25.9782 205.792 26.0431 205.378 26.173 205.016C26.3028 204.648 26.4813 204.339 26.7085 204.091C26.9412 203.842 27.2117 203.652 27.52 203.522C27.8338 203.393 28.1746 203.328 28.5425 203.328C28.905 203.328 29.2431 203.393 29.5569 203.522C29.876 203.652 30.1492 203.842 30.3765 204.091C30.6091 204.339 30.7903 204.648 30.9202 205.016C31.0554 205.378 31.123 205.792 31.123 206.257ZM30.0032 206.257C30.0032 205.9 29.9653 205.597 29.8896 205.348C29.8138 205.094 29.7083 204.888 29.5731 204.732C29.4433 204.575 29.2891 204.461 29.1105 204.391C28.932 204.32 28.7427 204.285 28.5425 204.285C28.3423 204.285 28.153 204.32 27.9745 204.391C27.8013 204.461 27.6499 204.575 27.52 204.732C27.3902 204.888 27.2874 205.094 27.2117 205.348C27.1413 205.597 27.1062 205.9 27.1062 206.257C27.1062 206.609 27.1413 206.906 27.2117 207.15C27.2874 207.393 27.3902 207.593 27.52 207.75C27.6499 207.902 27.8013 208.013 27.9745 208.083C28.153 208.148 28.3423 208.18 28.5425 208.18C28.7427 208.18 28.932 208.148 29.1105 208.083C29.2891 208.013 29.4433 207.902 29.5731 207.75C29.7083 207.593 29.8138 207.393 29.8896 207.15C29.9653 206.906 30.0032 206.609 30.0032 206.257Z" fill="black"/>
<path d="M2.93758 167.762C3.54349 167.632 4.10071 167.567 4.60924 167.567C5.21515 167.567 5.75073 167.656 6.21598 167.835C6.68124 168.013 7.06804 168.259 7.37641 168.573C7.69018 168.887 7.92551 169.257 8.0824 169.685C8.2447 170.112 8.32585 170.577 8.32585 171.081C8.32585 171.697 8.21765 172.254 8.00125 172.752C7.79027 173.25 7.49543 173.677 7.11673 174.034C6.74345 174.386 6.30254 174.656 5.79401 174.846C5.28548 175.035 4.73637 175.13 4.14669 175.13C3.80587 175.13 3.47857 175.095 3.1648 175.024C2.85102 174.959 2.55618 174.87 2.28028 174.757C2.00978 174.643 1.75822 174.513 1.52559 174.367C1.29297 174.221 1.08739 174.067 0.908864 173.904L1.35518 173.288C1.45256 173.147 1.57969 173.077 1.73658 173.077C1.84478 173.077 1.9665 173.12 2.10175 173.207C2.237 173.288 2.402 173.38 2.59676 173.483C2.79151 173.585 3.01873 173.68 3.2784 173.767C3.54349 173.848 3.85726 173.888 4.21973 173.888C4.62547 173.888 4.99064 173.823 5.31523 173.694C5.63983 173.564 5.91844 173.38 6.15106 173.142C6.38369 172.898 6.56222 172.609 6.68665 172.273C6.81107 171.938 6.87329 171.562 6.87329 171.145C6.87329 170.783 6.81919 170.456 6.71099 170.164C6.6082 169.871 6.44861 169.623 6.23221 169.417C6.02123 169.211 5.75614 169.052 5.43696 168.938C5.11777 168.825 4.74449 168.768 4.31711 168.768C4.02497 168.768 3.71931 168.792 3.40013 168.841C3.08635 168.89 2.76446 168.968 2.43446 169.076L1.52559 168.808L2.4588 163.371H7.96879V164.004C7.96879 164.21 7.90387 164.38 7.77404 164.516C7.64961 164.645 7.43321 164.71 7.12485 164.71H3.47316L2.93758 167.762ZM18.3409 169.19C18.3409 170.207 18.2299 171.089 18.0081 171.835C17.7917 172.576 17.4942 173.19 17.1155 173.677C16.7368 174.164 16.2878 174.527 15.7684 174.765C15.2545 175.003 14.7027 175.122 14.113 175.122C13.5179 175.122 12.9634 175.003 12.4495 174.765C11.9409 174.527 11.4973 174.164 11.1186 173.677C10.7399 173.19 10.4424 172.576 10.226 171.835C10.0096 171.089 9.9014 170.207 9.9014 169.19C9.9014 168.173 10.0096 167.291 10.226 166.544C10.4424 165.798 10.7399 165.181 11.1186 164.694C11.4973 164.202 11.9409 163.837 12.4495 163.599C12.9634 163.361 13.5179 163.242 14.113 163.242C14.7027 163.242 15.2545 163.361 15.7684 163.599C16.2878 163.837 16.7368 164.202 17.1155 164.694C17.4942 165.181 17.7917 165.798 18.0081 166.544C18.2299 167.291 18.3409 168.173 18.3409 169.19ZM16.8396 169.19C16.8396 168.303 16.7639 167.559 16.6124 166.958C16.4663 166.352 16.2662 165.865 16.0119 165.497C15.763 165.13 15.4736 164.867 15.1436 164.71C14.8136 164.548 14.4701 164.467 14.113 164.467C13.756 164.467 13.4124 164.548 13.0824 164.71C12.7524 164.867 12.463 165.13 12.2141 165.497C11.9653 165.865 11.7651 166.352 11.6136 166.958C11.4676 167.559 11.3945 168.303 11.3945 169.19C11.3945 170.077 11.4676 170.821 11.6136 171.421C11.7651 172.022 11.9653 172.506 12.2141 172.874C12.463 173.242 12.7524 173.507 13.0824 173.669C13.4124 173.826 13.756 173.904 14.113 173.904C14.4701 173.904 14.8136 173.826 15.1436 173.669C15.4736 173.507 15.763 173.242 16.0119 172.874C16.2662 172.506 16.4663 172.022 16.6124 171.421C16.7639 170.821 16.8396 170.077 16.8396 169.19ZM24.6879 166.179C24.6879 166.634 24.6176 167.042 24.477 167.404C24.3363 167.762 24.147 168.064 23.9089 168.313C23.6763 168.557 23.4031 168.743 23.0893 168.873C22.7809 169.003 22.4536 169.068 22.1074 169.068C21.745 169.068 21.4068 169.003 21.0931 168.873C20.7793 168.743 20.5061 168.557 20.2735 168.313C20.0462 168.064 19.8677 167.762 19.7379 167.404C19.608 167.042 19.5431 166.634 19.5431 166.179C19.5431 165.714 19.608 165.3 19.7379 164.938C19.8677 164.575 20.0462 164.269 20.2735 164.021C20.5061 163.772 20.7793 163.582 21.0931 163.453C21.4068 163.323 21.745 163.258 22.1074 163.258C22.4753 163.258 22.8161 163.323 23.1299 163.453C23.4437 163.582 23.7169 163.772 23.9495 164.021C24.1821 164.269 24.3633 164.575 24.4932 164.938C24.623 165.3 24.6879 165.714 24.6879 166.179ZM23.5681 166.179C23.5681 165.822 23.5302 165.519 23.4545 165.27C23.3787 165.021 23.2733 164.819 23.138 164.662C23.0082 164.499 22.854 164.383 22.6755 164.313C22.4969 164.242 22.3076 164.207 22.1074 164.207C21.9072 164.207 21.7206 164.242 21.5475 164.313C21.3744 164.383 21.2229 164.499 21.0931 164.662C20.9632 164.819 20.8604 165.021 20.7847 165.27C20.709 165.519 20.6711 165.822 20.6711 166.179C20.6711 166.531 20.709 166.831 20.7847 167.08C20.8604 167.323 20.9632 167.524 21.0931 167.68C21.2229 167.832 21.3744 167.943 21.5475 168.013C21.7206 168.078 21.9072 168.11 22.1074 168.11C22.3076 168.11 22.4969 168.078 22.6755 168.013C22.854 167.943 23.0082 167.832 23.138 167.68C23.2733 167.524 23.3787 167.323 23.4545 167.08C23.5302 166.831 23.5681 166.531 23.5681 166.179ZM28.8022 163.615C28.8563 163.55 28.9185 163.493 28.9888 163.444C29.0646 163.396 29.1646 163.371 29.2891 163.371H30.3359L21.8315 174.765C21.7828 174.835 21.7206 174.892 21.6449 174.935C21.5691 174.978 21.4772 175 21.369 175H20.3059L28.8022 163.615ZM31.123 172.257C31.123 172.712 31.0527 173.117 30.912 173.474C30.7714 173.831 30.582 174.134 30.344 174.383C30.1114 174.627 29.8382 174.813 29.5244 174.943C29.216 175.073 28.8887 175.138 28.5425 175.138C28.1746 175.138 27.8338 175.073 27.52 174.943C27.2117 174.813 26.9412 174.627 26.7085 174.383C26.4813 174.134 26.3028 173.831 26.173 173.474C26.0431 173.117 25.9782 172.712 25.9782 172.257C25.9782 171.792 26.0431 171.378 26.173 171.016C26.3028 170.648 26.4813 170.339 26.7085 170.091C26.9412 169.842 27.2117 169.652 27.52 169.522C27.8338 169.393 28.1746 169.328 28.5425 169.328C28.905 169.328 29.2431 169.393 29.5569 169.522C29.876 169.652 30.1492 169.842 30.3765 170.091C30.6091 170.339 30.7903 170.648 30.9202 171.016C31.0554 171.378 31.123 171.792 31.123 172.257ZM30.0032 172.257C30.0032 171.9 29.9653 171.597 29.8896 171.348C29.8138 171.094 29.7083 170.888 29.5731 170.732C29.4433 170.575 29.2891 170.461 29.1105 170.391C28.932 170.32 28.7427 170.285 28.5425 170.285C28.3423 170.285 28.153 170.32 27.9745 170.391C27.8013 170.461 27.6499 170.575 27.52 170.732C27.3902 170.888 27.2874 171.094 27.2117 171.348C27.1413 171.597 27.1062 171.9 27.1062 172.257C27.1062 172.609 27.1413 172.906 27.2117 173.15C27.2874 173.393 27.3902 173.593 27.52 173.75C27.6499 173.902 27.8013 174.013 27.9745 174.083C28.153 174.148 28.3423 174.18 28.5425 174.18C28.7427 174.18 28.932 174.148 29.1105 174.083C29.2891 174.013 29.4433 173.902 29.5731 173.75C29.7083 173.593 29.8138 173.393 29.8896 173.15C29.9653 172.906 30.0032 172.609 30.0032 172.257Z" fill="black"/>
<path d="M4.69039 140.929C5.0799 140.929 5.43155 140.867 5.74532 140.742C6.06451 140.618 6.335 140.445 6.55681 140.223C6.78402 140.001 6.95714 139.739 7.07616 139.436C7.20059 139.133 7.2628 138.803 7.2628 138.446C7.2628 138.067 7.20329 137.726 7.08427 137.423C6.96526 137.115 6.79484 136.855 6.57304 136.644C6.35664 136.428 6.09697 136.263 5.79401 136.149C5.49106 136.036 5.15835 135.979 4.79588 135.979C4.40637 135.979 4.05473 136.046 3.74095 136.182C3.42718 136.311 3.15939 136.49 2.93758 136.717C2.72118 136.939 2.55348 137.199 2.43446 137.496C2.32085 137.788 2.26405 138.094 2.26405 138.413C2.26405 138.787 2.31815 139.127 2.42634 139.436C2.53454 139.744 2.69143 140.009 2.89701 140.231C3.10799 140.453 3.36226 140.626 3.6598 140.75C3.96276 140.869 4.30629 140.929 4.69039 140.929ZM3.84644 134.729C3.74366 134.859 3.64357 134.986 3.54619 135.11C3.45423 135.23 3.36496 135.349 3.2784 135.468C3.55431 135.278 3.85726 135.132 4.18727 135.029C4.51727 134.927 4.87703 134.875 5.26654 134.875C5.73721 134.875 6.18082 134.954 6.59738 135.11C7.01394 135.262 7.37641 135.486 7.68477 135.784C7.99855 136.076 8.2474 136.439 8.43134 136.871C8.61528 137.299 8.70725 137.788 8.70725 138.34C8.70725 138.876 8.60987 139.373 8.41511 139.833C8.22035 140.293 7.94715 140.694 7.59551 141.034C7.24928 141.375 6.83001 141.643 6.33771 141.838C5.85081 142.032 5.31253 142.13 4.72285 142.13C4.13858 142.13 3.60841 142.038 3.13234 141.854C2.65626 141.665 2.25052 141.4 1.91511 141.059C1.5851 140.712 1.32813 140.296 1.1442 139.809C0.965668 139.317 0.876405 138.768 0.876405 138.162C0.876405 137.653 0.987308 137.112 1.20911 136.539C1.43633 135.96 1.79609 135.343 2.28839 134.689L5.2422 130.72C5.31794 130.623 5.42073 130.542 5.55056 130.477C5.68581 130.407 5.84 130.371 6.01311 130.371H7.29526L3.84644 134.729ZM18.3409 136.19C18.3409 137.207 18.2299 138.089 18.0081 138.835C17.7917 139.576 17.4942 140.19 17.1155 140.677C16.7368 141.164 16.2878 141.527 15.7684 141.765C15.2545 142.003 14.7027 142.122 14.113 142.122C13.5179 142.122 12.9634 142.003 12.4495 141.765C11.9409 141.527 11.4973 141.164 11.1186 140.677C10.7399 140.19 10.4424 139.576 10.226 138.835C10.0096 138.089 9.9014 137.207 9.9014 136.19C9.9014 135.173 10.0096 134.291 10.226 133.544C10.4424 132.798 10.7399 132.181 11.1186 131.694C11.4973 131.202 11.9409 130.837 12.4495 130.599C12.9634 130.361 13.5179 130.242 14.113 130.242C14.7027 130.242 15.2545 130.361 15.7684 130.599C16.2878 130.837 16.7368 131.202 17.1155 131.694C17.4942 132.181 17.7917 132.798 18.0081 133.544C18.2299 134.291 18.3409 135.173 18.3409 136.19ZM16.8396 136.19C16.8396 135.303 16.7639 134.559 16.6124 133.958C16.4663 133.352 16.2662 132.865 16.0119 132.497C15.763 132.13 15.4736 131.867 15.1436 131.71C14.8136 131.548 14.4701 131.467 14.113 131.467C13.756 131.467 13.4124 131.548 13.0824 131.71C12.7524 131.867 12.463 132.13 12.2141 132.497C11.9653 132.865 11.7651 133.352 11.6136 133.958C11.4676 134.559 11.3945 135.303 11.3945 136.19C11.3945 137.077 11.4676 137.821 11.6136 138.421C11.7651 139.022 11.9653 139.506 12.2141 139.874C12.463 140.242 12.7524 140.507 13.0824 140.669C13.4124 140.826 13.756 140.904 14.113 140.904C14.4701 140.904 14.8136 140.826 15.1436 140.669C15.4736 140.507 15.763 140.242 16.0119 139.874C16.2662 139.506 16.4663 139.022 16.6124 138.421C16.7639 137.821 16.8396 137.077 16.8396 136.19ZM24.6879 133.179C24.6879 133.634 24.6176 134.042 24.477 134.404C24.3363 134.762 24.147 135.064 23.9089 135.313C23.6763 135.557 23.4031 135.743 23.0893 135.873C22.7809 136.003 22.4536 136.068 22.1074 136.068C21.745 136.068 21.4068 136.003 21.0931 135.873C20.7793 135.743 20.5061 135.557 20.2735 135.313C20.0462 135.064 19.8677 134.762 19.7379 134.404C19.608 134.042 19.5431 133.634 19.5431 133.179C19.5431 132.714 19.608 132.3 19.7379 131.938C19.8677 131.575 20.0462 131.269 20.2735 131.021C20.5061 130.772 20.7793 130.582 21.0931 130.453C21.4068 130.323 21.745 130.258 22.1074 130.258C22.4753 130.258 22.8161 130.323 23.1299 130.453C23.4437 130.582 23.7169 130.772 23.9495 131.021C24.1821 131.269 24.3633 131.575 24.4932 131.938C24.623 132.3 24.6879 132.714 24.6879 133.179ZM23.5681 133.179C23.5681 132.822 23.5302 132.519 23.4545 132.27C23.3787 132.021 23.2733 131.819 23.138 131.662C23.0082 131.499 22.854 131.383 22.6755 131.313C22.4969 131.242 22.3076 131.207 22.1074 131.207C21.9072 131.207 21.7206 131.242 21.5475 131.313C21.3744 131.383 21.2229 131.499 21.0931 131.662C20.9632 131.819 20.8604 132.021 20.7847 132.27C20.709 132.519 20.6711 132.822 20.6711 133.179C20.6711 133.531 20.709 133.831 20.7847 134.08C20.8604 134.323 20.9632 134.524 21.0931 134.68C21.2229 134.832 21.3744 134.943 21.5475 135.013C21.7206 135.078 21.9072 135.11 22.1074 135.11C22.3076 135.11 22.4969 135.078 22.6755 135.013C22.854 134.943 23.0082 134.832 23.138 134.68C23.2733 134.524 23.3787 134.323 23.4545 134.08C23.5302 133.831 23.5681 133.531 23.5681 133.179ZM28.8022 130.615C28.8563 130.55 28.9185 130.493 28.9888 130.444C29.0646 130.396 29.1646 130.371 29.2891 130.371H30.3359L21.8315 141.765C21.7828 141.835 21.7206 141.892 21.6449 141.935C21.5691 141.978 21.4772 142 21.369 142H20.3059L28.8022 130.615ZM31.123 139.257C31.123 139.712 31.0527 140.117 30.912 140.474C30.7714 140.831 30.582 141.134 30.344 141.383C30.1114 141.627 29.8382 141.813 29.5244 141.943C29.216 142.073 28.8887 142.138 28.5425 142.138C28.1746 142.138 27.8338 142.073 27.52 141.943C27.2117 141.813 26.9412 141.627 26.7085 141.383C26.4813 141.134 26.3028 140.831 26.173 140.474C26.0431 140.117 25.9782 139.712 25.9782 139.257C25.9782 138.792 26.0431 138.378 26.173 138.016C26.3028 137.648 26.4813 137.339 26.7085 137.091C26.9412 136.842 27.2117 136.652 27.52 136.522C27.8338 136.393 28.1746 136.328 28.5425 136.328C28.905 136.328 29.2431 136.393 29.5569 136.522C29.876 136.652 30.1492 136.842 30.3765 137.091C30.6091 137.339 30.7903 137.648 30.9202 138.016C31.0554 138.378 31.123 138.792 31.123 139.257ZM30.0032 139.257C30.0032 138.9 29.9653 138.597 29.8896 138.348C29.8138 138.094 29.7083 137.888 29.5731 137.732C29.4433 137.575 29.2891 137.461 29.1105 137.391C28.932 137.32 28.7427 137.285 28.5425 137.285C28.3423 137.285 28.153 137.32 27.9745 137.391C27.8013 137.461 27.6499 137.575 27.52 137.732C27.3902 137.888 27.2874 138.094 27.2117 138.348C27.1413 138.597 27.1062 138.9 27.1062 139.257C27.1062 139.609 27.1413 139.906 27.2117 140.15C27.2874 140.393 27.3902 140.593 27.52 140.75C27.6499 140.902 27.8013 141.013 27.9745 141.083C28.153 141.148 28.3423 141.18 28.5425 141.18C28.7427 141.18 28.932 141.148 29.1105 141.083C29.2891 141.013 29.4433 140.902 29.5731 140.75C29.7083 140.593 29.8138 140.393 29.8896 140.15C29.9653 139.906 30.0032 139.609 30.0032 139.257Z" fill="black"/>
<path d="M4.70662 82.9775C5.08531 82.9775 5.42343 82.9261 5.72098 82.8233C6.02393 82.7151 6.2782 82.5664 6.48377 82.377C6.69476 82.1823 6.85435 81.9524 6.96255 81.6873C7.07616 81.4168 7.13296 81.1192 7.13296 80.7946C7.13296 80.3943 7.06534 80.0535 6.93009 79.7722C6.80025 79.4854 6.62173 79.2528 6.39451 79.0743C6.1727 78.8958 5.91573 78.7659 5.6236 78.6848C5.33146 78.5982 5.0258 78.5549 4.70662 78.5549C4.38743 78.5549 4.08178 78.5982 3.78964 78.6848C3.49751 78.7659 3.23783 78.8958 3.01061 79.0743C2.78881 79.2528 2.61028 79.4854 2.47503 79.7722C2.34519 80.0535 2.28028 80.3943 2.28028 80.7946C2.28028 81.1192 2.33438 81.4168 2.44257 81.6873C2.55618 81.9524 2.71577 82.1823 2.92135 82.377C3.13234 82.5664 3.3866 82.7151 3.68415 82.8233C3.9871 82.9261 4.32793 82.9775 4.70662 82.9775ZM4.70662 73.3614C4.36039 73.3614 4.05473 73.4128 3.78964 73.5156C3.52996 73.6184 3.31086 73.759 3.13234 73.9376C2.95922 74.1161 2.82668 74.3244 2.73471 74.5624C2.64815 74.8005 2.60487 75.0547 2.60487 75.3252C2.60487 75.5903 2.64274 75.8473 2.71848 76.0961C2.79422 76.345 2.91594 76.5668 3.08365 76.7615C3.25135 76.9509 3.46775 77.1051 3.73284 77.2241C4.00333 77.3377 4.32793 77.3945 4.70662 77.3945C5.08531 77.3945 5.4072 77.3377 5.67229 77.2241C5.94278 77.1051 6.16188 76.9509 6.32959 76.7615C6.4973 76.5668 6.61902 76.345 6.69476 76.0961C6.7705 75.8473 6.80837 75.5903 6.80837 75.3252C6.80837 75.0547 6.76238 74.8005 6.67042 74.5624C6.58386 74.3244 6.45131 74.1161 6.27279 73.9376C6.09967 73.759 5.88057 73.6184 5.61548 73.5156C5.35581 73.4128 5.05285 73.3614 4.70662 73.3614ZM6.37017 77.9382C7.09509 78.1438 7.65231 78.4873 8.04183 78.9688C8.43134 79.4503 8.6261 80.067 8.6261 80.819C8.6261 81.3275 8.52872 81.7873 8.33396 82.1985C8.14462 82.6042 7.87682 82.9505 7.53059 83.2372C7.18977 83.5239 6.77861 83.7457 6.29713 83.9026C5.81565 84.0541 5.28548 84.1298 4.70662 84.1298C4.12776 84.1298 3.59759 84.0541 3.11611 83.9026C2.63462 83.7457 2.22077 83.5239 1.87453 83.2372C1.5283 82.9505 1.26051 82.6042 1.07116 82.1985C0.881815 81.7873 0.787141 81.3275 0.787141 80.819C0.787141 80.067 0.981898 79.4503 1.37141 78.9688C1.76092 78.4873 2.31815 78.1438 3.04307 77.9382C2.43175 77.711 1.96921 77.3729 1.65543 76.9238C1.34707 76.4694 1.19288 75.9284 1.19288 75.3009C1.19288 74.8735 1.27674 74.4732 1.44445 74.0999C1.61215 73.7266 1.85019 73.402 2.15855 73.1261C2.46692 72.8502 2.83479 72.6338 3.26217 72.4769C3.69497 72.32 4.17645 72.2416 4.70662 72.2416C5.23138 72.2416 5.71016 72.32 6.14295 72.4769C6.57574 72.6338 6.94632 72.8502 7.25469 73.1261C7.56305 73.402 7.80109 73.7266 7.96879 74.0999C8.1365 74.4732 8.22035 74.8735 8.22035 75.3009C8.22035 75.9284 8.06347 76.4694 7.74969 76.9238C7.44133 77.3729 6.98149 77.711 6.37017 77.9382ZM18.3409 78.1898C18.3409 79.2068 18.2299 80.0886 18.0081 80.8352C17.7917 81.5764 17.4942 82.1904 17.1155 82.6773C16.7368 83.1642 16.2878 83.5266 15.7684 83.7647C15.2545 84.0027 14.7027 84.1217 14.113 84.1217C13.5179 84.1217 12.9634 84.0027 12.4495 83.7647C11.9409 83.5266 11.4973 83.1642 11.1186 82.6773C10.7399 82.1904 10.4424 81.5764 10.226 80.8352C10.0096 80.0886 9.9014 79.2068 9.9014 78.1898C9.9014 77.1727 10.0096 76.2909 10.226 75.5443C10.4424 74.7977 10.7399 74.181 11.1186 73.6941C11.4973 73.2018 11.9409 72.8367 12.4495 72.5986C12.9634 72.3606 13.5179 72.2416 14.113 72.2416C14.7027 72.2416 15.2545 72.3606 15.7684 72.5986C16.2878 72.8367 16.7368 73.2018 17.1155 73.6941C17.4942 74.181 17.7917 74.7977 18.0081 75.5443C18.2299 76.2909 18.3409 77.1727 18.3409 78.1898ZM16.8396 78.1898C16.8396 77.3025 16.7639 76.5587 16.6124 75.9582C16.4663 75.3523 16.2662 74.8654 16.0119 74.4975C15.763 74.1296 15.4736 73.8672 15.1436 73.7104C14.8136 73.5481 14.4701 73.4669 14.113 73.4669C13.756 73.4669 13.4124 73.5481 13.0824 73.7104C12.7524 73.8672 12.463 74.1296 12.2141 74.4975C11.9653 74.8654 11.7651 75.3523 11.6136 75.9582C11.4676 76.5587 11.3945 77.3025 11.3945 78.1898C11.3945 79.077 11.4676 79.8208 11.6136 80.4213C11.7651 81.0218 11.9653 81.506 12.2141 81.8739C12.463 82.2418 12.7524 82.5069 13.0824 82.6692C13.4124 82.8261 13.756 82.9045 14.113 82.9045C14.4701 82.9045 14.8136 82.8261 15.1436 82.6692C15.4736 82.5069 15.763 82.2418 16.0119 81.8739C16.2662 81.506 16.4663 81.0218 16.6124 80.4213C16.7639 79.8208 16.8396 79.077 16.8396 78.1898ZM24.6879 75.1791C24.6879 75.6336 24.6176 76.042 24.477 76.4045C24.3363 76.7615 24.147 77.0645 23.9089 77.3134C23.6763 77.5568 23.4031 77.7434 23.0893 77.8733C22.7809 78.0031 22.4536 78.068 22.1074 78.068C21.745 78.068 21.4068 78.0031 21.0931 77.8733C20.7793 77.7434 20.5061 77.5568 20.2735 77.3134C20.0462 77.0645 19.8677 76.7615 19.7379 76.4045C19.608 76.042 19.5431 75.6336 19.5431 75.1791C19.5431 74.7139 19.608 74.3 19.7379 73.9376C19.8677 73.5751 20.0462 73.2694 20.2735 73.0206C20.5061 72.7717 20.7793 72.5824 21.0931 72.4526C21.4068 72.3227 21.745 72.2578 22.1074 72.2578C22.4753 72.2578 22.8161 72.3227 23.1299 72.4526C23.4437 72.5824 23.7169 72.7717 23.9495 73.0206C24.1821 73.2694 24.3633 73.5751 24.4932 73.9376C24.623 74.3 24.6879 74.7139 24.6879 75.1791ZM23.5681 75.1791C23.5681 74.8221 23.5302 74.5191 23.4545 74.2703C23.3787 74.0214 23.2733 73.8186 23.138 73.6617C23.0082 73.4994 22.854 73.3831 22.6755 73.3127C22.4969 73.2424 22.3076 73.2072 22.1074 73.2072C21.9072 73.2072 21.7206 73.2424 21.5475 73.3127C21.3744 73.3831 21.2229 73.4994 21.0931 73.6617C20.9632 73.8186 20.8604 74.0214 20.7847 74.2703C20.709 74.5191 20.6711 74.8221 20.6711 75.1791C20.6711 75.5308 20.709 75.831 20.7847 76.0799C20.8604 76.3233 20.9632 76.5235 21.0931 76.6804C21.2229 76.8319 21.3744 76.9428 21.5475 77.0131C21.7206 77.078 21.9072 77.1105 22.1074 77.1105C22.3076 77.1105 22.4969 77.078 22.6755 77.0131C22.854 76.9428 23.0082 76.8319 23.138 76.6804C23.2733 76.5235 23.3787 76.3233 23.4545 76.0799C23.5302 75.831 23.5681 75.5308 23.5681 75.1791ZM28.8022 72.6148C28.8563 72.5499 28.9185 72.4931 28.9888 72.4444C29.0646 72.3957 29.1646 72.3714 29.2891 72.3714H30.3359L21.8315 83.7647C21.7828 83.835 21.7206 83.8918 21.6449 83.9351C21.5691 83.9784 21.4772 84 21.369 84H20.3059L28.8022 72.6148ZM31.123 81.2572C31.123 81.7116 31.0527 82.1174 30.912 82.4744C30.7714 82.8315 30.582 83.1344 30.344 83.3833C30.1114 83.6267 29.8382 83.8134 29.5244 83.9432C29.216 84.073 28.8887 84.138 28.5425 84.138C28.1746 84.138 27.8338 84.073 27.52 83.9432C27.2117 83.8134 26.9412 83.6267 26.7085 83.3833C26.4813 83.1344 26.3028 82.8315 26.173 82.4744C26.0431 82.1174 25.9782 81.7116 25.9782 81.2572C25.9782 80.7919 26.0431 80.3781 26.173 80.0156C26.3028 79.6477 26.4813 79.3394 26.7085 79.0905C26.9412 78.8417 27.2117 78.6523 27.52 78.5225C27.8338 78.3926 28.1746 78.3277 28.5425 78.3277C28.905 78.3277 29.2431 78.3926 29.5569 78.5225C29.876 78.6523 30.1492 78.8417 30.3765 79.0905C30.6091 79.3394 30.7903 79.6477 30.9202 80.0156C31.0554 80.3781 31.123 80.7919 31.123 81.2572ZM30.0032 81.2572C30.0032 80.9001 29.9653 80.5972 29.8896 80.3483C29.8138 80.094 29.7083 79.8885 29.5731 79.7316C29.4433 79.5747 29.2891 79.4611 29.1105 79.3908C28.932 79.3204 28.7427 79.2853 28.5425 79.2853C28.3423 79.2853 28.153 79.3204 27.9745 79.3908C27.8013 79.4611 27.6499 79.5747 27.52 79.7316C27.3902 79.8885 27.2874 80.094 27.2117 80.3483C27.1413 80.5972 27.1062 80.9001 27.1062 81.2572C27.1062 81.6088 27.1413 81.9064 27.2117 82.1498C27.2874 82.3933 27.3902 82.5934 27.52 82.7503C27.6499 82.9018 27.8013 83.0127 27.9745 83.083C28.153 83.1479 28.3423 83.1804 28.5425 83.1804C28.7427 83.1804 28.932 83.1479 29.1105 83.083C29.2891 83.0127 29.4433 82.9018 29.5731 82.7503C29.7083 82.5934 29.8138 82.3933 29.8896 82.1498C29.9653 81.9064 30.0032 81.6088 30.0032 81.2572Z" fill="black"/>
<path d="M8.26093 24.8964V26H2.02872V24.8964H4.51998V16.9682C4.51998 16.7301 4.52809 16.4894 4.54432 16.2459L2.47503 18.0231C2.4047 18.0826 2.33438 18.1205 2.26405 18.1367C2.19372 18.1475 2.1288 18.1475 2.06929 18.1367C2.00978 18.1259 1.95298 18.1042 1.89888 18.0718C1.85019 18.0393 1.81232 18.0042 1.78527 17.9663L1.33084 17.3414L4.79588 14.3471H5.97254V24.8964H8.26093ZM18.3409 20.1898C18.3409 21.2068 18.2299 22.0886 18.0081 22.8352C17.7917 23.5764 17.4942 24.1904 17.1155 24.6773C16.7368 25.1642 16.2878 25.5266 15.7684 25.7647C15.2545 26.0027 14.7027 26.1217 14.113 26.1217C13.5179 26.1217 12.9634 26.0027 12.4495 25.7647C11.9409 25.5266 11.4973 25.1642 11.1186 24.6773C10.7399 24.1904 10.4424 23.5764 10.226 22.8352C10.0096 22.0886 9.9014 21.2068 9.9014 20.1898C9.9014 19.1727 10.0096 18.2909 10.226 17.5443C10.4424 16.7977 10.7399 16.181 11.1186 15.6941C11.4973 15.2018 11.9409 14.8367 12.4495 14.5986C12.9634 14.3606 13.5179 14.2416 14.113 14.2416C14.7027 14.2416 15.2545 14.3606 15.7684 14.5986C16.2878 14.8367 16.7368 15.2018 17.1155 15.6941C17.4942 16.181 17.7917 16.7977 18.0081 17.5443C18.2299 18.2909 18.3409 19.1727 18.3409 20.1898ZM16.8396 20.1898C16.8396 19.3025 16.7639 18.5587 16.6124 17.9582C16.4663 17.3523 16.2662 16.8654 16.0119 16.4975C15.763 16.1296 15.4736 15.8672 15.1436 15.7104C14.8136 15.5481 14.4701 15.4669 14.113 15.4669C13.756 15.4669 13.4124 15.5481 13.0824 15.7104C12.7524 15.8672 12.463 16.1296 12.2141 16.4975C11.9653 16.8654 11.7651 17.3523 11.6136 17.9582C11.4676 18.5587 11.3945 19.3025 11.3945 20.1898C11.3945 21.077 11.4676 21.8208 11.6136 22.4213C11.7651 23.0218 11.9653 23.506 12.2141 23.8739C12.463 24.2418 12.7524 24.5069 13.0824 24.6692C13.4124 24.8261 13.756 24.9045 14.113 24.9045C14.4701 24.9045 14.8136 24.8261 15.1436 24.6692C15.4736 24.5069 15.763 24.2418 16.0119 23.8739C16.2662 23.506 16.4663 23.0218 16.6124 22.4213C16.7639 21.8208 16.8396 21.077 16.8396 20.1898ZM27.7554 20.1898C27.7554 21.2068 27.6445 22.0886 27.4226 22.8352C27.2063 23.5764 26.9087 24.1904 26.53 24.6773C26.1513 25.1642 25.7023 25.5266 25.1829 25.7647C24.669 26.0027 24.1172 26.1217 23.5275 26.1217C22.9324 26.1217 22.3779 26.0027 21.864 25.7647C21.3554 25.5266 20.9118 25.1642 20.5331 24.6773C20.1544 24.1904 19.8569 23.5764 19.6405 22.8352C19.4241 22.0886 19.3159 21.2068 19.3159 20.1898C19.3159 19.1727 19.4241 18.2909 19.6405 17.5443C19.8569 16.7977 20.1544 16.181 20.5331 15.6941C20.9118 15.2018 21.3554 14.8367 21.864 14.5986C22.3779 14.3606 22.9324 14.2416 23.5275 14.2416C24.1172 14.2416 24.669 14.3606 25.1829 14.5986C25.7023 14.8367 26.1513 15.2018 26.53 15.6941C26.9087 16.181 27.2063 16.7977 27.4226 17.5443C27.6445 18.2909 27.7554 19.1727 27.7554 20.1898ZM26.2541 20.1898C26.2541 19.3025 26.1784 18.5587 26.0269 17.9582C25.8808 17.3523 25.6807 16.8654 25.4264 16.4975C25.1775 16.1296 24.8881 15.8672 24.5581 15.7104C24.2281 15.5481 23.8846 15.4669 23.5275 15.4669C23.1705 15.4669 22.8269 15.5481 22.4969 15.7104C22.1669 15.8672 21.8775 16.1296 21.6286 16.4975C21.3798 16.8654 21.1796 17.3523 21.0281 17.9582C20.8821 18.5587 20.809 19.3025 20.809 20.1898C20.809 21.077 20.8821 21.8208 21.0281 22.4213C21.1796 23.0218 21.3798 23.506 21.6286 23.8739C21.8775 24.2418 22.1669 24.5069 22.4969 24.6692C22.8269 24.8261 23.1705 24.9045 23.5275 24.9045C23.8846 24.9045 24.2281 24.8261 24.5581 24.6692C24.8881 24.5069 25.1775 24.2418 25.4264 23.8739C25.6807 23.506 25.8808 23.0218 26.0269 22.4213C26.1784 21.8208 26.2541 21.077 26.2541 20.1898ZM34.1024 17.1791C34.1024 17.6336 34.0321 18.042 33.8915 18.4045C33.7508 18.7615 33.5615 19.0645 33.3234 19.3134C33.0908 19.5568 32.8176 19.7434 32.5038 19.8733C32.1955 20.0031 31.8682 20.068 31.5219 20.068C31.1595 20.068 30.8213 20.0031 30.5076 19.8733C30.1938 19.7434 29.9206 19.5568 29.688 19.3134C29.4607 19.0645 29.2822 18.7615 29.1524 18.4045C29.0225 18.042 28.9576 17.6336 28.9576 17.1791C28.9576 16.7139 29.0225 16.3 29.1524 15.9376C29.2822 15.5751 29.4607 15.2694 29.688 15.0206C29.9206 14.7717 30.1938 14.5824 30.5076 14.4526C30.8213 14.3227 31.1595 14.2578 31.5219 14.2578C31.8898 14.2578 32.2306 14.3227 32.5444 14.4526C32.8582 14.5824 33.1314 14.7717 33.364 15.0206C33.5966 15.2694 33.7779 15.5751 33.9077 15.9376C34.0375 16.3 34.1024 16.7139 34.1024 17.1791ZM32.9826 17.1791C32.9826 16.8221 32.9447 16.5191 32.869 16.2703C32.7933 16.0214 32.6878 15.8186 32.5525 15.6617C32.4227 15.4994 32.2685 15.3831 32.09 15.3127C31.9114 15.2424 31.7221 15.2072 31.5219 15.2072C31.3218 15.2072 31.1351 15.2424 30.962 15.3127C30.7889 15.3831 30.6374 15.4994 30.5076 15.6617C30.3777 15.8186 30.2749 16.0214 30.1992 16.2703C30.1235 16.5191 30.0856 16.8221 30.0856 17.1791C30.0856 17.5308 30.1235 17.831 30.1992 18.0799C30.2749 18.3233 30.3777 18.5235 30.5076 18.6804C30.6374 18.8319 30.7889 18.9428 30.962 19.0131C31.1351 19.078 31.3218 19.1105 31.5219 19.1105C31.7221 19.1105 31.9114 19.078 32.09 19.0131C32.2685 18.9428 32.4227 18.8319 32.5525 18.6804C32.6878 18.5235 32.7933 18.3233 32.869 18.0799C32.9447 17.831 32.9826 17.5308 32.9826 17.1791ZM38.2167 14.6148C38.2708 14.5499 38.333 14.4931 38.4033 14.4444C38.4791 14.3957 38.5791 14.3714 38.7036 14.3714H39.7504L31.246 25.7647C31.1973 25.835 31.1351 25.8918 31.0594 25.9351C30.9836 25.9784 30.8917 26 30.7835 26H29.7204L38.2167 14.6148ZM40.5375 23.2572C40.5375 23.7116 40.4672 24.1174 40.3265 24.4744C40.1859 24.8315 39.9965 25.1344 39.7585 25.3833C39.5259 25.6267 39.2527 25.8134 38.9389 25.9432C38.6305 26.073 38.3032 26.138 37.957 26.138C37.5891 26.138 37.2483 26.073 36.9345 25.9432C36.6262 25.8134 36.3557 25.6267 36.123 25.3833C35.8958 25.1344 35.7173 24.8315 35.5875 24.4744C35.4576 24.1174 35.3927 23.7116 35.3927 23.2572C35.3927 22.7919 35.4576 22.3781 35.5875 22.0156C35.7173 21.6477 35.8958 21.3394 36.123 21.0905C36.3557 20.8417 36.6262 20.6523 36.9345 20.5225C37.2483 20.3926 37.5891 20.3277 37.957 20.3277C38.3195 20.3277 38.6576 20.3926 38.9714 20.5225C39.2905 20.6523 39.5637 20.8417 39.791 21.0905C40.0236 21.3394 40.2048 21.6477 40.3347 22.0156C40.4699 22.3781 40.5375 22.7919 40.5375 23.2572ZM39.4177 23.2572C39.4177 22.9001 39.3798 22.5972 39.3041 22.3483C39.2283 22.094 39.1228 21.8885 38.9876 21.7316C38.8578 21.5747 38.7036 21.4611 38.525 21.3908C38.3465 21.3204 38.1572 21.2853 37.957 21.2853C37.7568 21.2853 37.5675 21.3204 37.389 21.3908C37.2159 21.4611 37.0644 21.5747 36.9345 21.7316C36.8047 21.8885 36.7019 22.094 36.6262 22.3483C36.5558 22.5972 36.5207 22.9001 36.5207 23.2572C36.5207 23.6088 36.5558 23.9064 36.6262 24.1498C36.7019 24.3933 36.8047 24.5934 36.9345 24.7503C37.0644 24.9018 37.2159 25.0127 37.389 25.083C37.5675 25.1479 37.7568 25.1804 37.957 25.1804C38.1572 25.1804 38.3465 25.1479 38.525 25.083C38.7036 25.0127 38.8578 24.9018 38.9876 24.7503C39.1228 24.5934 39.2283 24.3933 39.3041 24.1498C39.3798 23.9064 39.4177 23.6088 39.4177 23.2572Z" fill="black"/>
<path d="M2.29651 46.7878C2.29651 47.1556 2.3479 47.4856 2.45069 47.7778C2.55889 48.0645 2.71036 48.3079 2.90512 48.5081C3.10529 48.7083 3.34603 48.8598 3.62734 48.9625C3.91407 49.0653 4.23325 49.1167 4.5849 49.1167C4.97441 49.1167 5.31794 49.0545 5.61548 48.9301C5.91844 48.8002 6.1727 48.6298 6.37828 48.4188C6.58386 48.2079 6.74074 47.9644 6.84894 47.6885C6.95714 47.4126 7.01124 47.1259 7.01124 46.8283C7.01124 46.4659 6.95173 46.1386 6.83271 45.8464C6.7191 45.5489 6.55951 45.2973 6.35394 45.0918C6.14836 44.8862 5.90221 44.7293 5.61548 44.6211C5.33417 44.5075 5.0231 44.4507 4.68227 44.4507C4.32522 44.4507 4.00063 44.5102 3.70849 44.6292C3.41636 44.7428 3.1648 44.9024 2.95381 45.108C2.74282 45.3136 2.58053 45.5597 2.46692 45.8464C2.35331 46.1332 2.29651 46.4469 2.29651 46.7878ZM5.67229 50.3664C5.79131 50.2095 5.90221 50.0608 6.005 49.9201C6.10779 49.7794 6.20516 49.6388 6.29713 49.4981C5.99959 49.7362 5.66417 49.9174 5.29089 50.0418C4.91761 50.1662 4.52268 50.2285 4.10612 50.2285C3.66792 50.2285 3.25135 50.1554 2.85643 50.0094C2.46692 49.8633 2.12339 49.6496 1.82584 49.3683C1.5283 49.0816 1.29026 48.7326 1.11174 48.3215C0.938619 47.9049 0.85206 47.4288 0.85206 46.8933C0.85206 46.3847 0.946734 45.9087 1.13608 45.465C1.32543 45.0214 1.59051 44.6346 1.93134 44.3046C2.27216 43.9746 2.6779 43.7149 3.14857 43.5256C3.61923 43.3362 4.13587 43.2416 4.6985 43.2416C5.25573 43.2416 5.76155 43.3335 6.21598 43.5175C6.67042 43.7014 7.05993 43.9584 7.38452 44.2884C7.70912 44.6184 7.95797 45.0133 8.13109 45.4732C8.30962 45.933 8.39888 46.4415 8.39888 46.9987C8.39888 47.3342 8.36642 47.6533 8.3015 47.9563C8.24199 48.2538 8.15273 48.5487 8.03371 48.8408C7.9201 49.1275 7.77945 49.4143 7.61174 49.701C7.44403 49.9823 7.25469 50.2717 7.0437 50.5693L4.21161 54.6592C4.14128 54.762 4.0412 54.8458 3.91136 54.9107C3.78153 54.9702 3.63275 55 3.46505 55H2.13421L5.67229 50.3664ZM18.3409 49.1898C18.3409 50.2068 18.2299 51.0886 18.0081 51.8352C17.7917 52.5764 17.4942 53.1904 17.1155 53.6773C16.7368 54.1642 16.2878 54.5266 15.7684 54.7647C15.2545 55.0027 14.7027 55.1217 14.113 55.1217C13.5179 55.1217 12.9634 55.0027 12.4495 54.7647C11.9409 54.5266 11.4973 54.1642 11.1186 53.6773C10.7399 53.1904 10.4424 52.5764 10.226 51.8352C10.0096 51.0886 9.9014 50.2068 9.9014 49.1898C9.9014 48.1727 10.0096 47.2909 10.226 46.5443C10.4424 45.7977 10.7399 45.181 11.1186 44.6941C11.4973 44.2018 11.9409 43.8367 12.4495 43.5986C12.9634 43.3606 13.5179 43.2416 14.113 43.2416C14.7027 43.2416 15.2545 43.3606 15.7684 43.5986C16.2878 43.8367 16.7368 44.2018 17.1155 44.6941C17.4942 45.181 17.7917 45.7977 18.0081 46.5443C18.2299 47.2909 18.3409 48.1727 18.3409 49.1898ZM16.8396 49.1898C16.8396 48.3025 16.7639 47.5587 16.6124 46.9582C16.4663 46.3523 16.2662 45.8654 16.0119 45.4975C15.763 45.1296 15.4736 44.8672 15.1436 44.7104C14.8136 44.5481 14.4701 44.4669 14.113 44.4669C13.756 44.4669 13.4124 44.5481 13.0824 44.7104C12.7524 44.8672 12.463 45.1296 12.2141 45.4975C11.9653 45.8654 11.7651 46.3523 11.6136 46.9582C11.4676 47.5587 11.3945 48.3025 11.3945 49.1898C11.3945 50.077 11.4676 50.8208 11.6136 51.4213C11.7651 52.0218 11.9653 52.506 12.2141 52.8739C12.463 53.2418 12.7524 53.5069 13.0824 53.6692C13.4124 53.8261 13.756 53.9045 14.113 53.9045C14.4701 53.9045 14.8136 53.8261 15.1436 53.6692C15.4736 53.5069 15.763 53.2418 16.0119 52.8739C16.2662 52.506 16.4663 52.0218 16.6124 51.4213C16.7639 50.8208 16.8396 50.077 16.8396 49.1898ZM24.6879 46.1791C24.6879 46.6336 24.6176 47.042 24.477 47.4045C24.3363 47.7615 24.147 48.0645 23.9089 48.3134C23.6763 48.5568 23.4031 48.7434 23.0893 48.8733C22.7809 49.0031 22.4536 49.068 22.1074 49.068C21.745 49.068 21.4068 49.0031 21.0931 48.8733C20.7793 48.7434 20.5061 48.5568 20.2735 48.3134C20.0462 48.0645 19.8677 47.7615 19.7379 47.4045C19.608 47.042 19.5431 46.6336 19.5431 46.1791C19.5431 45.7139 19.608 45.3 19.7379 44.9376C19.8677 44.5751 20.0462 44.2694 20.2735 44.0206C20.5061 43.7717 20.7793 43.5824 21.0931 43.4526C21.4068 43.3227 21.745 43.2578 22.1074 43.2578C22.4753 43.2578 22.8161 43.3227 23.1299 43.4526C23.4437 43.5824 23.7169 43.7717 23.9495 44.0206C24.1821 44.2694 24.3633 44.5751 24.4932 44.9376C24.623 45.3 24.6879 45.7139 24.6879 46.1791ZM23.5681 46.1791C23.5681 45.8221 23.5302 45.5191 23.4545 45.2703C23.3787 45.0214 23.2733 44.8186 23.138 44.6617C23.0082 44.4994 22.854 44.3831 22.6755 44.3127C22.4969 44.2424 22.3076 44.2072 22.1074 44.2072C21.9072 44.2072 21.7206 44.2424 21.5475 44.3127C21.3744 44.3831 21.2229 44.4994 21.0931 44.6617C20.9632 44.8186 20.8604 45.0214 20.7847 45.2703C20.709 45.5191 20.6711 45.8221 20.6711 46.1791C20.6711 46.5308 20.709 46.831 20.7847 47.0799C20.8604 47.3233 20.9632 47.5235 21.0931 47.6804C21.2229 47.8319 21.3744 47.9428 21.5475 48.0131C21.7206 48.078 21.9072 48.1105 22.1074 48.1105C22.3076 48.1105 22.4969 48.078 22.6755 48.0131C22.854 47.9428 23.0082 47.8319 23.138 47.6804C23.2733 47.5235 23.3787 47.3233 23.4545 47.0799C23.5302 46.831 23.5681 46.5308 23.5681 46.1791ZM28.8022 43.6148C28.8563 43.5499 28.9185 43.4931 28.9888 43.4444C29.0646 43.3957 29.1646 43.3714 29.2891 43.3714H30.3359L21.8315 54.7647C21.7828 54.835 21.7206 54.8918 21.6449 54.9351C21.5691 54.9784 21.4772 55 21.369 55H20.3059L28.8022 43.6148ZM31.123 52.2572C31.123 52.7116 31.0527 53.1174 30.912 53.4744C30.7714 53.8315 30.582 54.1344 30.344 54.3833C30.1114 54.6267 29.8382 54.8134 29.5244 54.9432C29.216 55.073 28.8887 55.138 28.5425 55.138C28.1746 55.138 27.8338 55.073 27.52 54.9432C27.2117 54.8134 26.9412 54.6267 26.7085 54.3833C26.4813 54.1344 26.3028 53.8315 26.173 53.4744C26.0431 53.1174 25.9782 52.7116 25.9782 52.2572C25.9782 51.7919 26.0431 51.3781 26.173 51.0156C26.3028 50.6477 26.4813 50.3394 26.7085 50.0905C26.9412 49.8417 27.2117 49.6523 27.52 49.5225C27.8338 49.3926 28.1746 49.3277 28.5425 49.3277C28.905 49.3277 29.2431 49.3926 29.5569 49.5225C29.876 49.6523 30.1492 49.8417 30.3765 50.0905C30.6091 50.3394 30.7903 50.6477 30.9202 51.0156C31.0554 51.3781 31.123 51.7919 31.123 52.2572ZM30.0032 52.2572C30.0032 51.9001 29.9653 51.5972 29.8896 51.3483C29.8138 51.094 29.7083 50.8885 29.5731 50.7316C29.4433 50.5747 29.2891 50.4611 29.1105 50.3908C28.932 50.3204 28.7427 50.2853 28.5425 50.2853C28.3423 50.2853 28.153 50.3204 27.9745 50.3908C27.8013 50.4611 27.6499 50.5747 27.52 50.7316C27.3902 50.8885 27.2874 51.094 27.2117 51.3483C27.1413 51.5972 27.1062 51.9001 27.1062 52.2572C27.1062 52.6088 27.1413 52.9064 27.2117 53.1498C27.2874 53.3933 27.3902 53.5934 27.52 53.7503C27.6499 53.9018 27.8013 54.0127 27.9745 54.083C28.153 54.1479 28.3423 54.1804 28.5425 54.1804C28.7427 54.1804 28.932 54.1479 29.1105 54.083C29.2891 54.0127 29.4433 53.9018 29.5731 53.7503C29.7083 53.5934 29.8138 53.3933 29.8896 53.1498C29.9653 52.9064 30.0032 52.6088 30.0032 52.2572Z" fill="black"/>
<path d="M8.77216 97.3714V98.0206C8.77216 98.2045 8.75053 98.356 8.70725 98.475C8.66938 98.594 8.63151 98.6941 8.59364 98.7753L3.77341 108.489C3.70308 108.629 3.6057 108.751 3.48128 108.854C3.35685 108.951 3.19185 109 2.98627 109H1.94757L6.83271 99.4082C6.90304 99.273 6.97608 99.1486 7.05181 99.035C7.12755 98.9213 7.2087 98.8131 7.29526 98.7104H1.22534C1.13338 98.7104 1.05223 98.6752 0.981898 98.6049C0.911569 98.5291 0.876405 98.4453 0.876405 98.3533V97.3714H8.77216ZM18.3409 103.19C18.3409 104.207 18.2299 105.089 18.0081 105.835C17.7917 106.576 17.4942 107.19 17.1155 107.677C16.7368 108.164 16.2878 108.527 15.7684 108.765C15.2545 109.003 14.7027 109.122 14.113 109.122C13.5179 109.122 12.9634 109.003 12.4495 108.765C11.9409 108.527 11.4973 108.164 11.1186 107.677C10.7399 107.19 10.4424 106.576 10.226 105.835C10.0096 105.089 9.9014 104.207 9.9014 103.19C9.9014 102.173 10.0096 101.291 10.226 100.544C10.4424 99.7977 10.7399 99.181 11.1186 98.6941C11.4973 98.2018 11.9409 97.8367 12.4495 97.5986C12.9634 97.3606 13.5179 97.2416 14.113 97.2416C14.7027 97.2416 15.2545 97.3606 15.7684 97.5986C16.2878 97.8367 16.7368 98.2018 17.1155 98.6941C17.4942 99.181 17.7917 99.7977 18.0081 100.544C18.2299 101.291 18.3409 102.173 18.3409 103.19ZM16.8396 103.19C16.8396 102.303 16.7639 101.559 16.6124 100.958C16.4663 100.352 16.2662 99.8654 16.0119 99.4975C15.763 99.1296 15.4736 98.8672 15.1436 98.7104C14.8136 98.5481 14.4701 98.4669 14.113 98.4669C13.756 98.4669 13.4124 98.5481 13.0824 98.7104C12.7524 98.8672 12.463 99.1296 12.2141 99.4975C11.9653 99.8654 11.7651 100.352 11.6136 100.958C11.4676 101.559 11.3945 102.303 11.3945 103.19C11.3945 104.077 11.4676 104.821 11.6136 105.421C11.7651 106.022 11.9653 106.506 12.2141 106.874C12.463 107.242 12.7524 107.507 13.0824 107.669C13.4124 107.826 13.756 107.904 14.113 107.904C14.4701 107.904 14.8136 107.826 15.1436 107.669C15.4736 107.507 15.763 107.242 16.0119 106.874C16.2662 106.506 16.4663 106.022 16.6124 105.421C16.7639 104.821 16.8396 104.077 16.8396 103.19ZM24.6879 100.179C24.6879 100.634 24.6176 101.042 24.477 101.404C24.3363 101.762 24.147 102.064 23.9089 102.313C23.6763 102.557 23.4031 102.743 23.0893 102.873C22.7809 103.003 22.4536 103.068 22.1074 103.068C21.745 103.068 21.4068 103.003 21.0931 102.873C20.7793 102.743 20.5061 102.557 20.2735 102.313C20.0462 102.064 19.8677 101.762 19.7379 101.404C19.608 101.042 19.5431 100.634 19.5431 100.179C19.5431 99.7139 19.608 99.3 19.7379 98.9376C19.8677 98.5751 20.0462 98.2694 20.2735 98.0206C20.5061 97.7717 20.7793 97.5824 21.0931 97.4526C21.4068 97.3227 21.745 97.2578 22.1074 97.2578C22.4753 97.2578 22.8161 97.3227 23.1299 97.4526C23.4437 97.5824 23.7169 97.7717 23.9495 98.0206C24.1821 98.2694 24.3633 98.5751 24.4932 98.9376C24.623 99.3 24.6879 99.7139 24.6879 100.179ZM23.5681 100.179C23.5681 99.8221 23.5302 99.5191 23.4545 99.2703C23.3787 99.0214 23.2733 98.8186 23.138 98.6617C23.0082 98.4994 22.854 98.3831 22.6755 98.3127C22.4969 98.2424 22.3076 98.2072 22.1074 98.2072C21.9072 98.2072 21.7206 98.2424 21.5475 98.3127C21.3744 98.3831 21.2229 98.4994 21.0931 98.6617C20.9632 98.8186 20.8604 99.0214 20.7847 99.2703C20.709 99.5191 20.6711 99.8221 20.6711 100.179C20.6711 100.531 20.709 100.831 20.7847 101.08C20.8604 101.323 20.9632 101.524 21.0931 101.68C21.2229 101.832 21.3744 101.943 21.5475 102.013C21.7206 102.078 21.9072 102.11 22.1074 102.11C22.3076 102.11 22.4969 102.078 22.6755 102.013C22.854 101.943 23.0082 101.832 23.138 101.68C23.2733 101.524 23.3787 101.323 23.4545 101.08C23.5302 100.831 23.5681 100.531 23.5681 100.179ZM28.8022 97.6148C28.8563 97.5499 28.9185 97.4931 28.9888 97.4444C29.0646 97.3957 29.1646 97.3714 29.2891 97.3714H30.3359L21.8315 108.765C21.7828 108.835 21.7206 108.892 21.6449 108.935C21.5691 108.978 21.4772 109 21.369 109H20.3059L28.8022 97.6148ZM31.123 106.257C31.123 106.712 31.0527 107.117 30.912 107.474C30.7714 107.831 30.582 108.134 30.344 108.383C30.1114 108.627 29.8382 108.813 29.5244 108.943C29.216 109.073 28.8887 109.138 28.5425 109.138C28.1746 109.138 27.8338 109.073 27.52 108.943C27.2117 108.813 26.9412 108.627 26.7085 108.383C26.4813 108.134 26.3028 107.831 26.173 107.474C26.0431 107.117 25.9782 106.712 25.9782 106.257C25.9782 105.792 26.0431 105.378 26.173 105.016C26.3028 104.648 26.4813 104.339 26.7085 104.091C26.9412 103.842 27.2117 103.652 27.52 103.522C27.8338 103.393 28.1746 103.328 28.5425 103.328C28.905 103.328 29.2431 103.393 29.5569 103.522C29.876 103.652 30.1492 103.842 30.3765 104.091C30.6091 104.339 30.7903 104.648 30.9202 105.016C31.0554 105.378 31.123 105.792 31.123 106.257ZM30.0032 106.257C30.0032 105.9 29.9653 105.597 29.8896 105.348C29.8138 105.094 29.7083 104.888 29.5731 104.732C29.4433 104.575 29.2891 104.461 29.1105 104.391C28.932 104.32 28.7427 104.285 28.5425 104.285C28.3423 104.285 28.153 104.32 27.9745 104.391C27.8013 104.461 27.6499 104.575 27.52 104.732C27.3902 104.888 27.2874 105.094 27.2117 105.348C27.1413 105.597 27.1062 105.9 27.1062 106.257C27.1062 106.609 27.1413 106.906 27.2117 107.15C27.2874 107.393 27.3902 107.593 27.52 107.75C27.6499 107.902 27.8013 108.013 27.9745 108.083C28.153 108.148 28.3423 108.18 28.5425 108.18C28.7427 108.18 28.932 108.148 29.1105 108.083C29.2891 108.013 29.4433 107.902 29.5731 107.75C29.7083 107.593 29.8138 107.393 29.8896 107.15C29.9653 106.906 30.0032 106.609 30.0032 106.257Z" fill="black"/>
<path d="M144.477 158.189C144.477 100.348 167.131 40.6838 178.761 17.4146C178.972 16.9929 179.073 16.5485 179.073 16.077V15.2899C179.073 13.6284 177.726 12.2815 176.065 12.2815H175.313C173.651 12.2815 172.304 10.9346 172.304 9.27311V4.0084C172.304 2.34691 173.651 1 175.313 1H292.661C294.322 1 295.649 2.34691 295.649 4.0084V9.27311C295.649 10.9346 294.302 12.2815 292.64 12.2815H291.888C290.227 12.2815 288.88 13.6284 288.88 15.2899V16.077C288.88 16.5485 288.981 16.9929 289.192 17.4146C300.822 40.6838 323.476 100.348 323.476 158.189V299.584C323.114 307.376 320.761 321.271 314.486 329.739C309.949 335.862 301.565 336.437 293.944 336.437H174.009C166.388 336.437 158.004 335.862 153.467 329.739C147.192 321.271 144.839 307.376 144.477 299.584V158.189Z" fill="#FBE1C8" stroke="#FFCE9E" stroke-width="1.5042"/>
<path d="M312.57 36.6477C309.313 34.5941 305.208 32.2317 300.528 29.8935C279.558 19.4152 247.053 9.42435 227.57 29.8935C184.713 74.9209 168.028 59.7803 150.647 63.1573V161.182L143.999 273.045C143.999 291.056 147.57 319.199 156.142 328.205C159.355 331.581 168.999 333.832 186.856 332.708H291.142C300.428 332.708 313.999 321.45 313.999 278.674C313.999 229.015 312.57 108.852 312.57 49.9406L300.528 29.8935L312.57 36.6477Z" fill="#FFD1A4"/>
<path d="M235.134 34.7928C210.08 9.83043 195.774 6.77579 177 17.9994L168.296 34.7928L155 53.9995C150 70 137.773 233.372 144.265 282.835C144.265 325.483 158.534 336.708 168.296 336.708H277.94C296.715 337.829 306.854 335.585 310.232 332.219C319.244 323.24 322.999 295.18 322.999 277.223V167.231L316.01 63.0049C297.736 59.6379 280.193 79.6865 235.134 34.7928Z" fill="#FF7E00"/>
</svg>
